﻿[
	{
		"_id":"c-100",
		"_parentId":"b-100",
		"_type":"component",
		"_component":"text",
		"_classes":"",
		"_layout":"full",
		"title":"مقدمة",
		"displayTitle": "",
		"body": "تشكل الإعلانات على فيسبوك جزءًا من استراتيجية تسويق متكاملة وتوفر أدوات للوصول إلى جماهير عامة أو جماهير محددة على فيسبوك أو Instagram أو Messenger أو عبر تطبيقات الهواتف المحمولة باستخدام Audience Network. <br><br>2 مليار شخص <sup>1</sup> - أكثر من نصف مستخدمي الإنترنت بالعالم<sup>2</sup> - يستخدمون فيسبوك شهريًا. تساعد أنواع الجماهير التي يوفرها فيسبوك مسؤولي التسويق في تعيين استهداف الإعلانات باستخدام البيانات التي يقدمها الأشخاص بأنفسهم إلى فيسبوك كمعلومات متاحة للعامة، بالإضافة إلى البيانات التي يتم الحصول عليها من شركات خارجية. <br><br>ويمكن أن تساعد بيانات تسجيل الدخول الثابتة التي يستخدمها الأشخاص عبر مجموعة تطبيقات وخدمات فيسبوك بشكل أفضل في تحديد الأشخاص وإعادة استهدافهم عبر الأجهزة عديدة ومشتركة وليس مجرد ملفات تعريف الارتباط التي تستند إلى المتصفح فحسب. ووفقًا للتصنيفات الرقمية للإعلانات من Nielsen، تصل النسبة العالمية لدقة الاستهداف على الإنترنت إلى 65% فقط عند الوصول إلى جمهور عام.<sup>3</sup> بينما تصل نسبة دقة فيسبوك في استهداف الجمهور على نطاق عام إلى 85% للحملات الإعلانية على مستوى العالم - ودقة تصل إلى 90% بالنسبة إلى الحملات الإعلانية داخل الولايات المتحدة التي تجمع بين عنصري العمر والجنس.<sup>4</sup>",
		"instruction": "",
		"_pageLevelProgress": {
			"_isEnabled": true
		}
	},
	{
		"_id": "c-110",
		"_parentId": "b-110",
		"_type": "component",
		"_component": "text",
		"_classes": "",
		"_layout": "full",
		"title": "التواصل على فيسبوك",
		"displayTitle": "التواصل على فيسبوك",
		"body": "يوفر فيسبوك لمسؤولي التسويق ثلاث استراتيجيات استهداف مختلفة.<br><br><ul><li><strong>الجماهير الأساسية</strong>: يمكنك تعيين استهداف الإعلانات باستخدام بيانات فيسبوك.</li><li><strong>الجماهير المخصصة</strong>: يمكنك استخدام البيانات التي تحصل عليها من نظام إدارة المحتوى أو موقع الويب أو تطبيق الهواتف المحمولة أو أي مصادر أخرى لتعيين استهداف إعلانات فيسبوك إلى الأشخاص الذين تعرفهم بالفعل.</li><li><strong>الجماهير المشابهة</strong>: يمكنك الوصول إلى جماهير جديدة من خلال دمج الجماهير المخصصة مع استهداف فيسبوك.</li></ul><br><br>إذا كنت مهتمًا بالتعرف على المزيد عن الجماهير المخصصة أو المشابهة، يمكنك الحصول على دورات Blueprint التدريبية التالية:<br><br><ul><em><li>الاستهداف: الجماهير المخصصة</li><li>الاستهداف: الجماهير المشابهة</li></em></ul><br><br><div class='textCompWapper'><div class='textCompLeftDiv'><img src='course/en/images/tip.png' class='textCompImageCenter'></div><!-- .textCompLeftDiv end --><div class='textCompRightDiv'>إذا لم تكن لديك أي دراية مسبقة بكيفية إنشاء إعلانات على فيسبوك، أو كنت تريد تحديث معلوماتك بشأن الفروق بين الحملات الإعلانية والمجموعات الإعلانية والإعلانات، فننصحك بقوة بالحصول على الدورة التدريبية \"مدير الإعلانات\" في Blueprint قبل متابعة دورة استهداف الإعلانات.</div><!-- .textCompRightDiv end --></div><!-- .textCompWrapper end -->",
		"instruction": "",
		"_pageLevelProgress": {
			"_isEnabled": true
		}
	},

	{
		"_id": "c-120",
		"_parentId": "b-120",
		"_type": "component",
		"_component": "text",
		"_classes": "",
		"_layout": "full",
		"title": "عناصر الجمهور الأساسي",
		"displayTitle": "عناصر الجمهور الأساسي",
		"body": "تُعد الجماهير الأساسية خيار استهداف إعلانات الافتراضي على فيسبوك، حيث يتم إجراء الاستهداف على مستوى <em>المجموعة الإعلانية</em>، ويمكن تقسيم الجمهور إلى مجموعات إعلانية منفصلة حيث يمكنك تعيين عروض أسعار مختلفة للوصول إلى كل جمهور على حدة.<br><br>ويتيح إنشاء جمهور أساسي على فيسبوك لمسؤولي التسويق معايرة عرض الإعلانات تبعًا للمعلومات الديموغرافية والمواقع والاهتمامات والسلوكيات وجهات التواصل.",
		"instruction": "",
		"_pageLevelProgress": {
			"_isEnabled": true
		}
	},
	{
		"_id":"c-122",
		"_parentId":"b-120",
		"_type":"component",
		"_component":"graphic",
		"_classes":"",
		"_layout":"left",
		"title":"تحديد جمهورك",
		"displayTitle":"",
		"body":"",
		"instruction":"",
		"_graphic": {
			"large": "course/en/images/new_audience.png",
			"small": "course/en/images/new_audience.png",
			"alt": "خيارات تحديد الجمهور"
		},
		"postGraphicBody":"",
		"_isComplete": false,
		"_pageLevelProgress": {
			"_isEnabled": false
		}
	},
	{
		"_id":"c-125",
		"_parentId":"b-120",
		"_type":"component",
		"_component":"text",
		"_classes":"",
		"_layout":"right",
		"title":"خيارات الاستهداف",
		"displayTitle":"",
		"body":"يعتمد الاستهداف الذي يستند إلى <strong>المعلومات الديموغرافية</strong> على المعلومات التي يشاركها الأشخاص مع العامة على فيسبوك والتي تتعلق بالمستوى التعليمي والتوجهات السياسية والحالة الاجتماعية والأسرية والمناسبات الشخصية والوظيفة وغير ذلك الكثير.<br><br>يتيح <strong>استهداف الموقع</strong> لمسؤولي التسويق تعيين استهداف الإعلانات حسب الرمز البريدي أو المدينة أو المنطقة أو البلد - أو على المستوى العالمي - كما يتيح لهم عرض الإعلانات استنادًا إلى أماكن تواجد الأشخاص، سواء كانوا يقيمون في ذلك الموقع أو من الوافدين الجدد إلى هذا الموقع أو أنهم في مجرد زيارة لهذا الموقع فحسب.<br><br>ينصب تركيز الاستهداف حسب <strong>الاهتمامات</strong> على فئات المستهلكين ونمط الحياة مثل اللياقة البدنية أو الأزياء أو الهوايات.<br><br>يعتمد الاستهداف حسب <strong>السلوك</strong> على البيانات التي يوفرها فيسبوك والجهات الخارجية عن رحلات السفر وملكية المنازل والسيارات والتبرعات الخيرية واستخدام الأجهزة وسلوكيات المستهلكين الأخرى.<br><br>يتيح الاستهداف حسب <strong>جهات التواصل</strong> تضمين أو استبعاد شرائح من الجمهور استنادًا إلى تفاعلها مع صفحتك على فيسبوك أو مناسباتك على فيسبوك أو تطبيقك.",
		"instruction":"",
		"_isComplete": true,
		"_pageLevelProgress": {
			"_isEnabled": false
		}
	},
	{
		"_id": "c-130",
		"_parentId": "b-130",
		"_type": "component",
		"_component": "text",
		"_classes": "",
		"_layout": "full",
		"title": "خيارات إضافية",
		"displayTitle": "",
		"body": "عند إنشاء الجماهير الأساسية يمكنك اختيار تضمين الأشخاص أو استبعادها من جمهورك المستهدف استنادًا إلى أي سمة من هذه السمات. ويمكنك حفظ الجماهير الأساسية لاستخدامها في المستقبل ويمكنك تعديل الجماهير المحفوظة لاختبار عملية الاستهداف التي تستخدمها وتحسينها.<br><br><hr width='80%' style='margin-top:2em;'><cite><sup>1</sup> بيانات فيسبوك، يونيو 2017<br><sup>2</sup> Statista، أبريل 2017: اتصل ما يقرب من 3.5 مليار شخص بالإنترنت في عام 2016. <br><sup>3</sup> التصنيفات الرقمية للإعلانات من Nielsen، فبراير 2015، على مستوى العالم. <br><sup>4</sup> معايير Nielsen OCR، مارس 2015.</cite>",
		"instruction": "",
		"_isComplete": false,
		"_pageLevelProgress": {
			"_isEnabled": false
		}
	},
	{
		"_id":"c-199",
		"_parentId":"b-199",
		"_type":"component",
		"_component":"co-jump",
		"_classes":"color-test",
		"_preLinkBody":"لنبدأ بإلقاء نظرة على استراتيجيات الاستهداف التي تستند إلى ",
		"_linkBody":"المعلومات الديموغرافية والموقع",
		"_postLinkBody":" .",
		"_link":"#/id/co-02",
		"_graphic":"adapt/css/assets/icon_nextPage.png",
		"_instruction": "",
		"_isComplete": true,
		"_pageLevelProgress": {
			"_isEnabled": false
		}
	},



	{
		"_id": "c-200",
		"_parentId": "b-200",
		"_type": "component",
		"_component": "text",
		"_classes": "",
		"_layout": "full",
		"title": "بدء الاستخدام",
		"displayTitle": "",
		"body": "للبدء، قم بتسجيل الدخول إلى مدير الإعلانات أو Power Editor. ويمكنك إنشاء حملة إعلانية جديدة أو إضافة مجموعة إعلانية إلى حملة إعلانية موجودة. ويرجى العلم أن استهداف الجمهور يتم على مستوى المجموعة الإعلانية.",
		"instruction": "",
		"_isComplete": false,
		"_pageLevelProgress": {
			"_isEnabled": true
		}
	},
	{
		"_id": "c-210",
		"_parentId": "b-210",
		"_type": "component",
		"_component": "graphic",
		"_classes": "",
		"_layout": "full",
		"title": "استهداف استنادًا إلى الموقع",
		"displayTitle": "استهداف استنادًا إلى الموقع",
		"body": "توجد أربعة طرق لتعيين استهداف الإعلانات استنادًا إلى الموقع. يمكنك أن تطلب عرض إعلاناتك على:<br><br><ul><li><strong>كل</strong> من في الموقع</li><br><li><strong>الأشخاص المحليون</strong>: الأشخاص الذين يحددون أن هذا الموقع يمثل موطن إقامتهم الدائم</li><br><li><strong>المقيمون الجدد</strong>: الأشخاص الذين قاموا بتحديث بيانات موقعهم مؤخرًا</li><br><li><strong>الزوّار</strong>: الأشخاص الذين قاموا بتسجيل الدخول إلى أحد الأماكن التي ليست موقع إقامتهم الأصلي أو تمت الإشارة إليهم فيه",
		"instruction": "",
		"_graphic": {
			"large": "course/en/images/location.png",
			"small": "course/en/images/location.png",
			"alt": "الشرح"
		},
		"_isComplete": false,
		"_pageLevelProgress": {
			"_isEnabled": true
		}
	},
	{
		"_id":"c-220",
		"_parentId":"b-220",
		"_type":"component",
		"_component":"text",
		"_classes":"",
		"_layout":"full",
		"title":"أسباب التنقيح حسب الموقع",
		"displayTitle":"",
		"body":"قد يتمكن أحد متاجر الأجهزة الإلكترونية المحلية من استهداف الأشخاص المقيمين بصفة دائمة في منطقة معينة أو الذين انتقلوا إليها مؤخرًا، ولكن مع اختيار توفير الإنفاق الإعلاني من خلال استبعاد السائحين. بينما قد يختار مطعم أو محل هدايا استهداف كل الأشخاص بإعلاناته. ",
		"instruction":"",
		"_isComplete": false,
		"_pageLevelProgress": {
			"_isEnabled": false
		}
	},
	{
		"_id":"c-222",
		"_parentId":"b-220",
		"_type":"component",
		"_component":"graphic",
		"_classes":"",
		"_layout":"left",
		"title":"استهداف المناطق الجغرافية",
		"displayTitle":"",
		"body":"<h2>استهداف المناطق الجغرافية</h2>",
		"instruction":"",
		"_graphic": {
			"large": "course/en/images/location_countries.png",
			"small": "course/en/images/location_countries.png",
			"alt": "الشرح"
		},
		"_isComplete": false,
		"_pageLevelProgress": {
			"_isEnabled": true
		}
	},
	{
		"_id":"c-225",
		"_parentId":"b-220",
		"_type":"component",
		"_component":"text",
		"_classes":"",
		"_layout":"right",
		"title":"التصفح حسب الموقع",
		"displayTitle":"",
		"body":"يمكنك استخدام ميزة التصفح لتعيين استهداف إعلاناتك على مستوى العالم أو حسب المنطقة الجغرافية أو البلد أو المدينة أو الرمز البريدي.",
		"instruction":"",
		"_isComplete": false,
		"_pageLevelProgress": {
			"_isEnabled": false
		}
	},
	{
		"_id": "c-230",
		"_parentId": "b-230",
		"_type": "component",
		"_component": "text",
		"_classes": "",
		"_layout": "left",
		"title": "الاستهداف حسب عنوان الشارع",
		"displayTitle": "",
		"body": "يمكنك كتابة عنوان فعلي لعرض إعلاناتك على الأشخاص الذي قاموا بتضمين عنوان في ملفهم الشخصي أو قاموا بتشغيل خدمات الموقع بأجهزتهم.",
		"instruction": "",
		"_isComplete": false,
		"_pageLevelProgress": {
			"_isEnabled": false
		}
	},

	{
		"_id":"c-235",
		"_parentId":"b-230",
		"_type":"component",
		"_component":"graphic",
		"_classes":"",
		"_layout":"left",
		"title":"الاستهداف حسب عنوان الشارع",
		"displayTitle":"",
		"body":"",
		"instruction":"",
		"_graphic": {
			"large": "course/en/images/location_address.png",
			"small": "course/en/images/location_address.png",
			"alt": "الاستهداف حسب عنوان الشارع"
		},
		"_isComplete": true,
		"_pageLevelProgress": {
			"_isEnabled": false
		}
	},
	{
		"_id": "c-240",
		"_parentId": "b-240",
		"_type": "component",
		"_component": "text",
		"_classes": "",
		"_layout": "full",
		"title": "الاستهداف حسب المنطقة",
		"displayTitle": "",
		"body": "<h2>الاستهداف حسب المنطقة</h2><br>يوفر الاستهداف حسب المنطقة طريقة لتحديد البلدان واستهدافها استنادًا إلى قواسم مشتركة لا ترتبط بالنطاق الجغرافي. تتضمن المناطق التي يمكن استهدافها بالإعلانات:",
		"instruction": "",
		"_graphic": {
			"alt": "",
			"title": "",
			"large": "course/en/images/info/precision_1.jpg",
			"small": "course/en/images/mobile-version/m-precision_1.png"
		},
		"_isComplete": false,
		"_pageLevelProgress": {
			"_isEnabled": true
		}
	},

	{
		"_id": "c-242",
		"_parentId": "b-240",
		"_type": "component",
		"_component": "text",
		"_classes": "",
		"_layout": "left",
		"title": "المناطق التي يمكن استهدافها",
		"displayTitle": "",
		"body": "<li><strong>مناطق التجارة الحرة</strong>: يمكنك الإعلان داخل منطقة تجارة حرة واحدة - على سبيل المثال، المنطقة الاقتصادية الأوروبية.</li><br><li><strong>مناطق متاجر التطبيقات</strong>: استهداف البلدان التي يتوفر بها متجر تطبيقات iTunes أو متجر Android Paid Store أو متجر Android Free Store فقط. أو الاختيار من بينها.</li><br><li><strong>الأسواق الناشئة</strong>: يمكنك تحديد واحدة أو أكثر من 20 بلدًا تشهد نموًا اقتصاديًا سريعًا والإعلان فيها.</li><br><li><strong>منطقة اليورو</strong>: يمكنك استهداف الأشخاص الذين يقيمون في البلدان التي تستخدم اليورو كعملة مشتركة.",
		"instruction": "",
		"_isComplete": false,
		"_pageLevelProgress": {
			"_isEnabled": false
		}
	},

	{
		"_id":"c-245",
		"_parentId":"b-240",
		"_type":"component",
		"_component":"graphic",
		"_classes":"",
		"_layout":"left",
		"title":"التصفح حسب المنطقة",
		"displayTitle":"",
		"body":"",
		"instruction":"",
		"_graphic": {
			"large": "course/en/images/location_regions.png",
			"small": "course/en/images/location_regions.png",
			"alt": "التصفح حسب المنطقة"
		},
		"_isComplete": true,
		"_pageLevelProgress": {
			"_isEnabled": false
		}
	},
	{
		"_id": "c-250",
		"_parentId": "b-250",
		"_type": "component",
		"_component": "graphic",
		"_classes": "",
		"_layout": "full",
		"title": "الاستهداف الديموغرافي",
		"displayTitle": "الاستهداف الديموغرافي",
		"body": "يعتبر تعيين استهداف عرض الإعلانات استنادًا إلى السمات الديموغرافية، مثل العمر والجنس، استراتيجية تسويقية عريقة في التأثير.",
		"instruction": "",
		"_graphic": {
			"alt": "",
			"large": "course/en/images/target_demo.png",
			"small": "course/en/images/target_demo.png"
		},
		"_isComplete": false,
		"_pageLevelProgress": {
			"_isEnabled": true
		}
	},
	{
		"_id": "c-260",
		"_parentId": "b-260",
		"_type": "component",
		"_component": "text",
		"_classes": "",
		"_layout": "full",
		"title": "قيود العمر",
		"displayTitle": "",
		"body": "عند تعيين استهداف الإعلانات حسب العمر، يرجى الانتباه إلى أن سياسات إعلانات فيسبوك تحظر الإعلان عن فئات منتجات محددة إلى الأشخاص الذين تقل أعمارهم عن 18 عامًا. وتشمل هذه الفئات الخدمات المالية والمقامرة أو اليانصيب ومنتجات الصحة واللياقة - بما في ذلك المكملات الغذائية والأعشاب الطبيعية. وقد تختلف قيود العمر المتعلقة بالكحول من بلد أو ولاية أو مقاطعة لأخرى. يمكنك الاطلاع على <a href='https://www.facebook.com/policies/ads/restricted_content/alcohol' target='_blank'>سياسة الإعلان عن منتجات الكحول</a>، متضمنة القائمة الكاملة للقيود الجغرافية.<br><br>يجب عليك إضافة الاستهداف حسب اللغة إذا كانت اللغة التي تستهدفها ليست اللغة الأصلية التي يتم التحدث بها في الموقع الذي تستهدفه.",
		"instruction": "",
		"_isComplete": true,
		"_pageLevelProgress": {
			"_isEnabled": false
		}
	},
	{
		"_id":"c-299",
		"_parentId":"b-299",
		"_type":"component",
		"_component":"co-jump",
		"_classes":"color-test",
		"_preLinkBody":"سنقوم في الجزء التالي بإلقاء نظرة على كيفية الاستفادة من تعيين استهداف عرض الإعلانات استنادًا إلى ",
		"_linkBody":"الاهتمامات والسلوكيات",
		"_postLinkBody":" التي يشاركها الأشخاص مع فيسبوك في عرض الإعلانات على الأشخاص الذين يرجّح بقوة استجابتهم بشكل إيجابي.",
		"_link":"#/id/co-03",
		"_graphic":"adapt/css/assets/icon_nextPage.png",
		"_isComplete": false,
		"_pageLevelProgress": {
			"_isEnabled": false
		}
	},



	{
		"_id": "c-300",
		"_parentId": "b-300",
		"_type": "component",
		"_component": "text",
		"_classes": "",
		"_layout": "full",
		"title": "الاستهداف حسب الاهتمامات مقارنة بالاستهداف حسب السلوكيات",
		"displayTitle": "",
		"body": "يتيح فيسبوك إمكانية عرض الإعلانات حسب اهتمامات الأشخاص وسلوكياتهم.<br><br><ul><li>يتيح الاستهداف حسب <strong>الاهتمام</strong> لمسؤولي التسويق إمكانية الوصول إلى جماهير محددة من خلال النظر إلى اهتمامات الأشخاص وأنشطتهم والصفحات والمنشورات التي يسجلون إعجابهم بها والمنشورات والتعليقات التي يقومون بنشرها والموضوعات وثيقة الصلة.</li><li>يتيح لك الاستهداف حسب <strong>السلوك</strong> إمكانية الوصول إلى الأشخاص بناءً على سلوكهم الشرائي والأجهزة التي يستخدمونها وغيرها من الأنشطة*</li></ul><br>على سبيل المثال، يمكنك اختيار \"إعداد المخبوزات\" كاهتمام لعرض الإعلانات على الأشخاص الذين يحددون \"إعداد المخبوزات\" كأحد الأنشطة التي يستمتعون بها، أو الأشخاص الذين يتابعون صفحات المخبوزات أو المدونات التي تهتم بإعداد المخبوزات. وينطبق السلوك \"إعداد المخبوزات\" على الأشخاص الذين تم تحديدهم من خلال شركات خارجية على أنهم قاموا بشراء مستلزمات أو أدوات إعداد المخبوزات. ",
		"instruction": "",
		"_isComplete": false,
		"_pageLevelProgress": {
			"_isEnabled": true
		}
	},
	{
		"_id": "c-310",
		"_parentId": "b-310",
		"_type": "component",
		"_component": "graphic",
		"_classes": "",
		"_layout": "left",
		"title": "مثال: \"إعداد المخبوزات\" كاهتمام",
		"displayTitle": "",
		"body": "",
		"instruction": "",
		"_graphic": {
			"alt": "مثال: \"إعداد المخبوزات\" كاهتمام",
			"large": "course/en/images/audience_browse_i.png",
			"small": "course/en/images/audience_browse_i.png"
		},
		"_isComplete": false,
		"_pageLevelProgress": {
			"_isEnabled": false
		}
	},

	{
		"_id": "c-315",
		"_parentId": "b-310",
		"_type": "component",
		"_component": "graphic",
		"_classes": "",
		"_layout": "right",
		"title": "مثال: \"إعداد المخبوزات\" كسلوك",
		"displayTitle": "",
		"body": "",
		"instruction": "",
		"_graphic": {
			"alt": "مثال: \"إعداد المخبوزات\" كسلوك",
			"large": "course/en/images/audience_browse_b.png",
			"small": "course/en/images/audience_browse_b.png"
		},
		"_isComplete": false,
		"_pageLevelProgress": {
			"_isEnabled": false
		}
	},
	{
		"_id": "c-320",
		"_parentId": "b-320",
		"_type": "component",
		"_component": "graphic",
		"_classes": "",
		"_layout": "full",
		"title": "اقتراحات الاهتمامات ذات الصلة",
		"displayTitle": "",
		"body": "<cite>* لا يتوفر سلوك الشراء كخيار استهداف في جميع البلدان.</cite><br><br>بمجرد قيامك بإضافة اهتمام أو سلوك محدد، قد يقوم فيسبوك باقتراح اهتمامات وسلوكيات إضافية تتوافق مع الاهتمام الأول. ",
		"instruction": "",
		"_graphic": {
			"alt": "",
			"large": "course/en/images/audience_suggest.png",
			"small": "course/en/images/audience_suggest.png"
		},
		"_isComplete": true,
		"_pageLevelProgress": {
			"_isEnabled": false
		}
	},
	{
		"_id": "c-330",
		"_parentId": "b-330",
		"_type": "component",
		"_component": "text",
		"_classes": "",
		"_layout": "full",
		"title": "حجم الجمهور",
		"displayTitle": "حجم الجمهور",
		"body": "عند إضافة عدة خصائص استهداف، يرجى الانتباه جيدًا إلى أن كل خاصية جديدة تؤدي إلى تضييق نطاق دائرة الأشخاص الذين يمكن عرض مجموعتك الإعلانية عليهم؛ ويمكن أن يساعدك مؤشر حجم الجمهور في تحقيق التوازن المناسب.",
		"instruction": "",
		"_isComplete": false,
		"_pageLevelProgress": {
			"_isEnabled": true
		}
	},

	{
		"_id": "c-340",
		"_parentId": "b-340",
		"_type": "component",
		"_component": "graphic",
		"_classes": "",
		"_layout": "left",
		"title": "جمهور محدد جيدًا",
		"displayTitle": "",
		"body": "<li style='font-size:1.2em;list-style-image:url(course/en/images/icon_checkmark.png);line-height:1.3em;'>قد يتمكن 520000 شخص من رؤية هذه المجموعة الإعلانية",
		"instruction": "",
		"_graphic": {
			"alt": "جمهور محدد جيدًا",
			"large": "course/en/images/size_defined.png",
			"small": "course/en/images/size_defined.png"
		},
		"_isComplete": false,
		"_pageLevelProgress": {
			"_isEnabled": false
		}
	},

	{
		"_id": "c-345",
		"_parentId": "b-340",
		"_type": "component",
		"_component": "graphic",
		"_classes": "center",
		"_layout": "right",
		"title": "جمهور محدد على نطاق ضيق جدًا",
		"displayTitle": "",
		"body": "<ul><li style='font-size:1.2em;list-style-image:url(course/en/images/not_recommended.png);line-height:1.3em;'>قد يتمكن 1300 شخص فقط من رؤية هذه المجموعة الإعلانية",
		"instruction": "",
		"_graphic": {
			"alt": "جمهور محدد على نطاق ضيق جدًا",
			"large": "course/en/images/size_specific.png",
			"small": "course/en/images/size_specific.png"
		},
		"_isComplete": true,
		"_pageLevelProgress": {
			"_isEnabled": false
		}
	},
	{
		"_id":"c-399",
		"_parentId":"b-399",
		"_type":"component",
		"_component":"co-jump",
		"_classes":"color-test",
		"_preLinkBody":"تعلّم جيدًا كيفية تحقيق الاحترام والمسؤولية عند استهداف ",
		"_linkBody":"الجماهير ذات الانتماء متعدد الثقافات",
		"_postLinkBody":" في الولايات المتحدة. وتشير هذه الفئات إلى الأشخاص الذين أبدوا اهتمامًا بمجتمعات \"أمريكية من أصل لاتيني\" أو \"أمريكية من أصل أفريقي\" أو \"أمريكية من أصل آسيوي\".",
		"_link":"#/id/co-04",
		"_graphic":"adapt/css/assets/icon_nextPage.png",
		"_isComplete": false,
		"_pageLevelProgress": {
			"_isEnabled": false
		}
	},



	{
		"_id": "c-400",
		"_parentId": "b-400",
		"_type": "component",
		"_component": "text",
		"_classes": "",
		"_layout": "full",
		"title": "استهداف الجماهير ذات الانتماء متعدد الثقافات",
		"displayTitle": "",
		"body": "يٌعد الانتماء متعدد الثقافات أحد أهم فئات السلوكيات التي يتيح فيسبوك لمسؤولي التسويق استهدافها داخل الولايات المتحدة. ويدرك مسؤولو التسويق المتمرسون تلك الضرورة الملحة في عالم الأعمال التجارية التي تقبع وراء التواصل مع الأشخاص الذين لديهم اهتمامات مختلفة تنبثق عن الاعتقادات الثقافية أو التقاليد أو الموسيقى أو علم الجمال أو اللغات. وتزداد أهمية التسويق إلى تلك المجموعات كلما زاد عدد المستهلكين متعددي الثقافات وتأثيرهم وقوة الإنفاق أو القوة الشرائية التي يتمتعون بها. ",
		"instruction": "",
		"_isComplete": false,
		"_pageLevelProgress": {
			"_isEnabled": true
		}
	},
	{
		"_id": "c-410",
		"_parentId": "b-410",
		"_type": "component",
		"_component": "text",
		"_classes": "",
		"_layout": "left",
		"title": "تحديد مجموعات الانتماء",
		"displayTitle": "",
		"body": "لا يستند حل الاستهداف الذي يوفره فيسبوك إلى العرقية، حيث يتم تحديد الجماهير التي تنتمي إلى مجتمعات أمريكية من أصل لاتيني أو أمريكية من أصل أفريقي أو أمريكية من أصل آسيوي من خلال انتماء الأشخاص إلى ثقافات كانوا قد أبدوا اهتمامًا بها من خلال سلوكياتهم على فيسبوك. ولهذا السبب تندرج جماهير مجموعات الانتماء ضمن مجموعة السلوكيات بدلاً من مجموعة المعلومات الديموغرافية.",
		"instruction": "",
		"_isComplete": false,
		"_pageLevelProgress": {
			"_isEnabled": false
		}
	},
	{
		"_id": "c-415",
		"_parentId": "b-410",
		"_type": "component",
		"_component": "graphic",
		"_classes": "",
		"_layout": "right",
		"title": "الاستهداف حسب مجموعة الانتماء",
		"displayTitle": "",
		"body": "",
		"instruction": "",
		"_graphic": {
			"alt": "الاستهداف حسب مجموعة الانتماء",
			"large": "course/en/images/target_mcaa.png",
			"small": "course/en/images/target_mcaa.png"
		},
		"_isComplete": false,
		"_pageLevelProgress": {
			"_isEnabled": false
		}
	},
	{
		"_id": "c-420",
		"_parentId": "b-420",
		"_type": "component",
		"_component": "text",
		"_classes": "",
		"_layout": "full",
		"title": "كيفية تحديد فيسبوك للانتماء",
		"displayTitle": "",
		"body": "الأشخاص الذين أبدوا اهتمامًا \"الانتماء متعدد الثقافات\" كانوا قد استجابوا بشكل جيد في وقت سابق إلى محتوى يرتبط بعلامات ثقافية محددة. يمكن أن يساعد الاستهداف حسب الانتماء متعدد الثقافات المعلنين في تقديم محتوى شديد الارتباط والملاءمة لجمهوره.",
		"instruction": "",
		"_isComplete": true,
		"_pageLevelProgress": {
			"_isEnabled": false
		}
	},
	{
		"_id": "c-430",
		"_parentId": "b-430",
		"_type": "component",
		"_component": "text",
		"_classes": "",
		"_layout": "full",
		"title": "الخصوصية والسياسات",
		"displayTitle": "الخصوصية والسياسات",
		"body": "ينتهج فيسبوك التنوع على منصتنا، فنحن نؤمن أن الإعلانات متعددة الثقافات من شأنها أن تكون محفّزة وشاملة. لا مكان بحال من الأحوال لوجود الإعلانات التمييزية على فيسبوك، وسياساتنا تحظر ذلك بشدة.<br><br>وكجزء من التزام فيسبوك تجاه عدم التمييز، تنص <a href='https://facebook.com/policies/ads/prohibited_content/discriminatory_practices' target='_blank'>سياسة الإعلانات</a> التي نعتمدها بوضوح على فئات المنتجات والخدمات التي يمكن تسويقها إلى جماهير الانتماء، وتزود المعلنين بالمعلومات والموارد للتعرف على ما يمكن اعتباره ممارسات قائمة على التمييز.<br><br><div class='textCompWapper'><div class='textCompLeftDiv'><img src='course/en/images/tip.png' class='textCompImageCenter'></div><!-- .textCompLeftDiv end --><div class='textCompRightDiv'>يجب ألا تميز الإعلانات أو تشجع على التمييز بين الأشخاص استنادًا إلى السمات الشخصية مثل السلالة أو العرق أو اللون أو الأصل القومي أو الدين أو الجنس أو التوجه الجنسي أو الهوية الجنسية أو العمر والوضع العائلي، أو الإعاقة، أو الحالة الصحية أو الوراثية.</div><!-- .textCompRightDiv end --></div><!-- .textCompWrapper end --><br><br>لا يُسمح بتسويق فئات محددة مثل الإسكان والتوظيف والائتمان على أساس الانتماء متعدد الثقافات.",
		"instruction": "",
		"_isComplete": true,
		"_pageLevelProgress": {
			"_isEnabled": true
		}
	},
	{
		"_id": "c-440",
		"_parentId": "b-440",
		"_type": "component",
		"_component": "text",
		"_classes": "",
		"_layout": "full",
		"title": "مجموعات الانتماء على فيسبوك",
		"displayTitle": "مجموعات الانتماء على فيسبوك",
		"body": "تشكّل مجموعات الأمريكيين من أصل لاتيني والأمريكيين من أصل أفريقي والأمريكيين من أصل آسيوي ما يزيد عن ثلث عدد سكان الولايات المتحدة.<sup>1</sup> ومع استمرار نمو التنوع داخل الولايات المتحدة، يجب على مسؤولي التسويق فهم خصائص السكان متعددي الثقافات التي تتزايد مع الوقت والتعامل معهم جيدًا. <br><br>يجب عليك الاهتمام بالاطلاع على موضوع <a href='https://facebook.com/iq/people-insights/audiences' target='_blank'>الجماهير</a> على Facebook IQ لتتعلم المزيد عن كيفية عرض الإعلانات إلى الجماهير ذات الانتماء متعدد الثقافات داخل الولايات المتحدة. قام Facebook IQ بإجراء دراسات تركّز على أسواق <a href='https://facebook.com/iq/articles/digital-diversity-a-closer-look-at-us-hispanics' target='_blank'>الأمريكيين من أصل لاتيني</a> و<a href='https://facebook.com/iq/articles/digital-diversity-a-closer-look-at-african-americans-in-the-us' target='_blank'>الأمريكيين من أصل أفريقي</a> و<a href='https://www.facebook.com/iq/articles/digital-diversity-a-closer-look-at-asian-americans-in-the-us' target='_blank'>الأمريكيين من أصل آسيوي</a>.",
		"instruction": "",
		"_isComplete": true,
		"_pageLevelProgress": {
			"_isEnabled": true
		}
	},
	{
		"_id": "c-450",
		"_parentId": "b-450",
		"_type": "component",
		"_component": "text",
		"_classes": "",
		"_layout": "full",
		"title": "فئة الانتماء إلى الأمريكيين من أصل لاتيني",
		"displayTitle": "",
		"body": "<h2>فئة الانتماء إلى الأمريكيين من أصل لاتيني</h2><br>بلغ عدد السكان الأمريكيين من أصل لاتيني 56.6 مليون في عام 2015، والذي يشكل نسبة 17.6% من إجمالي عدد سكان الولايات المتحدة. <sup>2</sup><br><br>تستخدم نسبة 96.9% من جمهور الانتماء من أصل لاتيني هواتفهم المحمولة للوصول إلى فيسبوك، بينما بلغت نسبة الذين يسجلون الدخول إلى فيسبوك باستخدام الهواتف المحمولة فقط دون غيرها من الأجهزة 66.8%.<sup>3</sup>",
		"instruction": "",
		"_isComplete": false,
		"_pageLevelProgress": {
			"_isEnabled": false
		}
	},
	{
		"_id": "c-460",
		"_parentId": "b-460",
		"_type": "component",
		"_component": "text",
		"_classes": "",
		"_layout": "full",
		"title": "استهداف اللغة السائدة",
		"displayTitle": "",
		"body": "<h4 style='color:#243760;font-size:1.12em;font-weight:200;'>استهداف اللغة السائدة</h4><br>عند إرسال الرسائل إلى جمهور الانتماء الأمريكي من أصل لاتيني، يتمكن مسؤولو التسويق من إنشاء إعلانات ومجموعات إعلانية باللغة الإنجليزية أو اللغة الأسبانية أو ثنائية اللغة.<br><br>وطبقًا <a href='https://www.facebook.com/iq/articles/gains-in-translation-what-your-language-choices-say-to-us-hispanics' target='_blank'>لدراسة أجرتها Facebook IQ حول تفضيلات اللغة</a> في أكتوبر 2016، ثبت أن العلامات التجارية التي تقدم إعلاناتها باللغة الأسبانية حققت نجاحًا إيجابيًا واضحًا. يرى 79% ممن يتحدثون الأسبانية كلغتهم الرئيسية و82% من الشريحة ثنائية اللغة و60% ممن لغتهم الرئيسية هي اللغة الإنجليزية من المشاركين في البحث الذين شملهم الاستبيان أنه ينبغي على العلامات التجارية تقديم إعلاناتها بكلا اللغتين الأسبانية والإنجليزية.<sup>4</sup>",
		"instruction": "",
		"_isComplete": true,
		"_pageLevelProgress": {
			"_isEnabled": false
		}
	},
	{
		"_id": "c-470",
		"_parentId": "b-470",
		"_type": "component",
		"_component": "text",
		"_classes": "",
		"_layout": "full",
		"title": "فئة الأمريكيين من أصل أفريقي",
		"displayTitle": "",
		"body": "<h2>فئة الأمريكيين من أصل أفريقي</h2><br><br>يقضي أكثر من 20 مليون عضو من جمهور الانتماء الأمريكي من أصل أفريقي وقتًا على فيسبوك شهريًا، ويبلغ عدد الزوّار اليوميين منهم 16 مليونًا (81%).<sup>5</sup><br><br>يقوم 19 مليون شخص منهم (95.5%) بزيارة فيسبوك باستخدام الهواتف المحمولة، بينما يسجل 60.1% منهم دخولهم إلى فيسبوك باستخدام الهواتف المحمولة فقط دون غيرها من الأجهزة.<sup>6</sup>",
		"instruction": "",
		"_isComplete": false,
		"_pageLevelProgress": {
			"_isEnabled": false
		}
	},
	{
		"_id": "c-480",
		"_parentId": "b-480",
		"_type": "component",
		"_component": "text",
		"_classes": "",
		"_layout": "full",
		"title": "فئة الأمريكيين من أصل آسيوي",
		"displayTitle": "",
		"body": "<h2>فئة الأمريكيين من أصل آسيوي</h2>يمكن تحديد جماهير الانتماء الأمريكي من أصل آسيوي على فيسبوك حسب الثقافات التي ينتمون إليها من باكستان إلى ماليزيا.<br><br>يقوم 7.2 مليون شخص ممن لهم صلة بالثقافات الآسيوية بزيارة فيسبوك شهريًا، ويتواجد 5 ملايين منهم على فيسبوك بصفة يومية.<sup>7</sup> ويسجل 89.8% من هذا الجمهور - أي 6.3 مليون شخص - دخولهم إلى فيسبوك باستخدام الهواتف المحمولة. بينما تبلغ نسبة من يستخدمون الهواتف المحمولة فقط دون غيرها من الأجهزة لزيارة فيسبوك منهم 43.4%.<sup>8</sup><br><br>في <a href='https://www.facebook.com/iq/articles/digital-diversity-a-closer-look-at-asian-americans-in-the-us' target='_blank'>دراسة أجرتها Facebook IQ حول التنوع الرقمي</a>، قام 55% من الأمريكيين من أصل آسيوي المشاركين في الاستبيان - و82% من الأمريكيين من أصل آسيوي الذين ولدوا خارج الولايات المتحدة - بذكر أن Facebook Messenger هو طريقتهم الأساسية التي يعتمدون عليها للتواصل مع أصدقائهم وعائلاتهم بالخارج.",
		"instruction": "",
		"_isComplete": true,
		"_pageLevelProgress": {
			"_isEnabled": false
		}
	},
	{
		"_id": "c-490",
		"_parentId": "b-490",
		"_type": "component",
		"_component": "text",
		"_classes": "",
		"_layout": "full",
		"title": "مصادر البيانات",
		"displayTitle": "",
		"body": "<hr width='80%'><cite><sup>1</sup> المصدر: مركز أبحاث Pew، يوليو 2016.<br><sup>2</sup> المصدر: مكتب الإحصاء بالولايات المتحدة، أكتوبر 2016.<br><sup>3</sup> المصدر: بيانات فيسبوك عن الأشخاص الذين تزيد أعمارهم عن 18 عامًا بالولايات المتحدة، يونيو 2016 (تم الوصول إليها في يونيو 2016).<br><sup>4</sup> مكاسب في الترجمة: ما الذي تقوله اختياراتك اللغوية للأمريكيين من أصل لاتيني، رؤى فيسبوك، أكتوبر 2016.<br><sup>5–8</sup> المصدر: بيانات فيسبوك عن الأشخاص الذين تزيد أعمارهم عن 18 عامًا بالولايات المتحدة، يونيو 2016 (تم الوصول إليها في يونيو 2016).</cite>",
		"instruction": "",
		"_isComplete": true,
		"_pageLevelProgress": {
			"_isEnabled": false
		}
	},
	{
		"_id":"c-499",
		"_parentId":"b-499",
		"_type":"component",
		"_component":"co-jump",
		"_classes":"color-test",
		"_preLinkBody":"سنقوم في الجزء التالي بإلقاء نظرة على تعيين استهداف عرض الإعلانات استنادًا إلى ",
		"_linkBody":"الأجهزة والتفاعل وجهات التواصل",
		"_postLinkBody":".",
		"_link":"#/id/co-05",
		"_graphic":"adapt/css/assets/icon_nextPage.png",
		"_isComplete": false,
		"_pageLevelProgress": {
			"_isEnabled": false
		}
	},




	{
		"_id": "c-500",
		"_parentId": "b-500",
		"_type": "component",
		"_component": "text",
		"_classes": "",
		"_layout": "full",
		"title": "طريقة وصول الأشخاص إلى فيسبوك",
		"displayTitle": " ",
		"body": "لقد تناولنا تعيين استهداف عرض الإعلانات استنادًا إلى الخصائص والسمات الشخصية للأشخاص واهتماماتهم. والآن دعونا نلقي نظرة على طريقة استخدام الأشخاص لمجموعة تطبيقات وخدمات فيسبوك.",
		"instruction": "",
		"_isComplete": false,
		"_pageLevelProgress": {
			"_isEnabled": false
		}
	},
	{
		"_id": "c-510",
		"_parentId": "b-510",
		"_type": "component",
		"_component": "text",
		"_classes": "",
		"_layout": "full",
		"title": "الاستهداف حسب الجهاز",
		"displayTitle": "الاستهداف حسب الجهاز",
		"body": "يعتبر استخدام الجهاز أحد السلوكيات الأخرى المهمة التي يمكن استهدافها. يمكنك تعيين استهداف الإعلانات حسب متصفح جهاز الكمبيوتر ونظام التشغيل المستخدم ضمن <strong>الأنشطة الرقمية</strong>، أو الأجهزة المحمولة ضمن <strong>مستخدم هاتف محمول</strong>. ",
		"instruction": "",
		"_isComplete": false,
		"_pageLevelProgress": {
			"_isEnabled": true
		}
	},
	{
		"_id": "c-520",
		"_parentId": "b-520",
		"_type": "component",
		"_component": "graphic",
		"_classes": "",
		"_layout": "left",
		"title": "متصفح جهاز الكمبيوتر ونظام التشغيل",
		"displayTitle": "",
		"body": "<div style='text-align: center;'><img src='course/en/images/glyph-desktop.png' width='80px' alt=\"جهاز كمبيوتر أو كمبيوتر محمول\">",
		"instruction": "",
		"_graphic": {
			"alt": "",
			"large": "course/en/images/target_digital.png",
			"small": "course/en/images/target_digital.png"
		},
		"_isComplete": false,
		"_pageLevelProgress": {
			"_isEnabled": false
		}
	},
	{
		"_id": "c-525",
		"_parentId": "b-520",
		"_type": "component",
		"_component": "graphic",
		"_classes": "",
		"_layout": "right",
		"title": "جهاز محمول",
		"displayTitle": "",
		"body": "<div style='text-align: center;'><img src='course/en/images/glyph-mobile.png' width='80px' alt=\"هاتف ذكي أو جهاز لوحي\">",
		"instruction": "",
		"_graphic": {
			"alt": "",
			"large": "course/en/images/target_device.png",
			"small": "course/en/images/target_device.png"
		},
		"_isComplete": true,
		"_pageLevelProgress": {
			"_isEnabled": false
		}
	},
	{
		"_id": "c-530",
		"_parentId": "b-530",
		"_type": "component",
		"_component": "graphic",
		"_classes": "",
		"_layout": "full",
		"title": "الاستهداف حسب جهات التواصل",
		"displayTitle": "الاستهداف حسب جهات التواصل",
		"instruction": "",
		"body": "يمكنك تضمين أو استبعاد الأشخاص من الجماهير الأساسية استنادًا إلى طبيعة تفاعلهم مع صفحتك على فيسبوك أو تطبيقاتك أو مناسباتك على فيسبوك. ويمكنك كذلك استهداف أو استبعاد الأصدقاء وجهات التواصل المرتبطين بالأشخاص الذين تفاعلوا مع المحتوى الذي تقدمه.",
		"_graphic": {
			"alt": "",
			"large": "course/en/images/connections_advanced.png",
			"small": "course/en/images/connections_advanced.png"
		},
		"_isComplete": true,
		"_pageLevelProgress": {
			"_isEnabled": true
		}
	},
	{
		"_id": "c-540",
		"_parentId": "b-540",
		"_type": "component",
		"_component": "text",
		"_classes": "",
		"_layout": "full",
		"title": "حفظ الجماهير",
		"displayTitle": "",
		"body": "يرجى العلم أنه يمكنك حفظ أي جمهور أساسي تقوم بإنشائه للرجوع إليه واستخدامه في المستقبل.",
		"instruction": "",
		"_isComplete": true,
		"_pageLevelProgress": {
			"_isEnabled": false
		}
	},
	{
		"_id":"c-599",
		"_parentId":"b-599",
		"_type":"component",
		"_component":"co-jump",
		"_classes":"color-test",
		"_preLinkBody":"سنقوم في الجزء التالي بتناول طرق ",
		"_linkBody":"تعديل الجماهير وإدارتها",
		"_postLinkBody":".",
		"_link":"#/id/co-06",
		"_graphic":"adapt/css/assets/icon_nextPage.png",
		"_isComplete": false,
		"_pageLevelProgress": {
			"_isEnabled": false
		}
	},



	{
		"_id": "c-600",
		"_parentId": "b-600",
		"_type": "component",
		"_component": "graphic",
		"_classes": "",
		"_layout": "full",
		"title": "الوصول إلى منطقة الجماهير",
		"displayTitle": "",
		"body": "عندما تقوم بحفظ جمهور أساسي، يمكنك إعادة استخدامه والرجوع إليه في الحملات الإعلانية المستقبلية. يمكنك الوصول إلى كل الجماهير المحفوظة والجماهير المخصصة والجماهير المشابهة المرتبطة بحسابك الإعلاني في منطقة <strong>الجماهير</strong> في مدير الإعلانات أو Power Editor. ",
		"instruction": "",
		"_graphic": {
			"alt": "",
			"large": "course/en/images/audiences_nav.png",
			"small": "course/en/images/audiences_nav.png"
		},
		"_isComplete": false,
		"_pageLevelProgress": {
			"_isEnabled": true
		}
	},
	{
		"_id": "c-610",
		"_parentId": "b-610",
		"_type": "component",
		"_component": "graphic",
		"_classes": "",
		"_layout": "full",
		"title": "مراجعة جماهيرك",
		"displayTitle": "",
		"body": "يمكنك الاطلاع على قائمة بكل جماهيرك وحجمها وحالتها من خلال لمحة سريعة.",
		"instruction": "",
		"_graphic": {
			"alt": "",
			"large": "course/en/images/audiences_area.png",
			"small": "course/en/images/audiences_area.png"
		},
		"_isComplete": false,
		"_pageLevelProgress": {
			"_isEnabled": false
		}
	},
	{
		"_id": "c-620",
		"_parentId": "b-620",
		"_type":"component",
		"_component":"text",
		"_classes":"",
		"_layout":"full",
		"title":"",
		"displayTitle":"",
		"body":"يمكنك النقر على اسم أي جمهور للوصول إلى منطقة تفاصيل الجمهور. ويمكنك تعديل الجمهور الذي قمت بتحديده أو حذفه أو إنشاء جماهير جديدة استنادًا إليه أو عرض سجل ذلك الجمهور. وهذا المكان أيضًا هو الذي يمكنك من خلاله مراجعة تاريخ إنشاء الجمهور ومن الذي قام بإنشائه وما التعديلات التي أُجريت عليه منذ إنشائه ومن الذي قام بإجرائها من أعضاء فريق العمل لديك.",
		"instruction":"",
		"postGraphicBody": "",
		"_isComplete": true,
		"_pageLevelProgress": {
			"_isEnabled": false
		}
	},
	{
		"_id": "c-630",
		"_parentId": "b-630",
		"_type":"component",
		"_component":"graphic",
		"_classes":"",
		"_layout":"full",
		"title":"تداخل الجمهور",
		"displayTitle":"تداخل الجمهور",
		"body":"عند تحديد اثنين أو أكثر من الجماهير، يمكنك تحديد التداخل بينها من خلال قائمة الإجراءات المنسدلة. لا توجد مشكلة من وقوع بعض التداخل بين الجماهير، إلا أنه قد يؤدي إلى انخفاض مستوى عرض مجموعاتك الإعلانية. <br><br>فعندما تستهدف المجموعات الإعلانية التابعة لنفس المُعلن جماهير متشابهة في الخصائص خلال نفس الفترة الزمنية، قد ينتهي بها الأمر إلى التنافس مع بعضها البعض في المزاد الإعلاني، وهو ما قد يتسبب في رفع الأسعار لكل مجموعة إعلانية في ذلك المزاد مما يؤدي إلى إنفاق ميزانيتك واستهلاكها بشكل غير فعّال. ولتجنب حدوث ذلك، يقوم فيسبوك، عند وجود اثنتين من المجموعات الإعلانية تنتمي إلى الحساب الإعلاني نفسه وتستهدف الجمهور نفسه، بالسماح فقط بتشغيل المجموعة الإعلانية التي تتمتع بسجل الأداء الأفضل من بينهما.&#160;",
		"instruction":"",
		"_graphic": {
			"class":"center-image",
			"alt": "أداة تداخل الجمهور",
			"large": "course/en/images/audience_overlap.png",
			"small": "course/en/images/audience_overlap.png"
		},
		"_isComplete": false,
		"_pageLevelProgress": {
			"_isEnabled": true
		}
	},
	{
		"_id": "c-640",
		"_parentId": "b-640",
		"_type":"component",
		"_component":"text",
		"_classes":"",
		"_layout":"full",
		"title":"",
		"displayTitle":"",
		"body":"تتوفر عدد من الاستراتيجيات التي يتمكن مسؤولو التسويق من استخدامها لتجنب حدوث تداخل الجماهير:<br><br><ul><li>يمكن إنشاء إعلانات مختلفة لاستهداف الجماهير المختلفة. إذا كنت تريد تعزيز الوعي بدورات تدريبية للطهي، يمكنك تخصيص إعلانات مختلفة لكل جمهور. على سبيل المثال:<ul><li>النساء، اللاتي تتراوح أعمارهن بين 20 إلى 35 عامًا: تعتبر الدورات التدريبية للطهي من أروع الأنشطة الليلية</li><li>الذكور، الذين تتراوح أعمارهم بين 20 إلى 35 عامًا: تعرف على طريقة إعداد وجبات بسيطة من خمس مكونات</li><li>العائلات دائمة الانشغال، والتي تتراوح أعمار أفرادها بين 36 إلى 50 عامًا: حان الوقت لاحتراف إعداد الأطباق السريعة الصحية، حتى الذواقة المدققين سيعشقونها</li></ul><br>لا تساعد هذه الاستراتيجية في إنشاء المزيد من الرسائل وثيقة الصلة فحسب، بل إنها تؤدي إلى الحد من تداخل الجماهير والتعرض لانخفاض مستوى عرض الإعلانات.</li><br><li>يمكنك تجميع جماهيرك في شرائح أكبر حجمًا وأقل عددًا.</li><br><li>قم بتقييم توقيت تشغيل المجموعات الإعلانية وقرر ما إذا كان يمكن تشغيلها في أوقات مختلفة.</li><br><li>يمكنك استبعاد الجماهير المتشابهة. ",
		"instruction":"",
		"_isComplete": false,
		"_pageLevelProgress": {
			"_isEnabled": false
		}
	},
	{
		"_id": "c-650",
		"_parentId": "b-650",
		"_type":"component",
		"_component":"graphic",
		"_classes":"",
		"_layout":"full",
		"title":"استبعاد الجمهور",
		"displayTitle":"استبعاد الجمهور",
		"body":"لاستبعاد جمهور، حدد استبعاد من قسم الجمهور في مجموعتك الإعلانية.",
		"instruction":"",
		"_graphic": {
			"alt": "تحديد الاستبعاد",
			"large": "course/en/images/exclude_audience01.png",
			"small": "course/en/images/exclude_audience01.png"
		},
		"postGraphicBody": "",
		"_isComplete": false,
		"_pageLevelProgress": {
			"_isEnabled": true
		}
	},
	{
		"_id": "c-660",
		"_parentId": "b-660",
		"_type":"component",
		"_component":"graphic",
		"_classes":"",
		"_layout":"full",
		"title":"",
		"displayTitle":"",
		"body":"انقر داخل الحقل النصي \"استبعاد الأشخاص الموجودين ضمن جمهور واحد على الأقل من الجماهير التالية\". ",
		"instruction":"",
		"_graphic": {
			"alt": "خيارات الاستبعاد",
			"large": "course/en/images/exclude_audience02.png",
			"small": "course/en/images/exclude_audience02.png"
		},
		"postGraphicBody": "",
		"_isComplete": false,
		"_pageLevelProgress": {
			"_isEnabled": false
		}
	},
	{
		"_id": "c-670",
		"_parentId": "b-670",
		"_type":"component",
		"_component":"graphic",
		"_classes":"",
		"_layout":"full",
		"title":"",
		"displayTitle":"",
		"body":"بعد ذلك قم باختيار الجمهور الذي يتداخل مع جمهورك المستهدف.",
		"instruction":"",
		"_graphic": {
			"alt": "اختيار جمهور لاستبعاده",
			"large": "course/en/images/exclude_audience03.png",
			"small": "course/en/images/exclude_audience03.png"
		},
		"postGraphicBody": "",
		"_isComplete": true,
		"_pageLevelProgress": {
			"_isEnabled": false
		}
	},
	{
		"_id":"c-699",
		"_parentId":"b-699",
		"_type":"component",
		"_component":"co-jump",
		"_classes":"color-test",
		"_preLinkBody":"دعنا الآن نختبر مدى قدرتك على التذكر. فقد حان الوقت لإجراء ",
		"_linkBody":"اختبار مستوى المعرفة",
		"_postLinkBody":".",
		"_link":"#/id/co-07",
		"_graphic":"adapt/css/assets/icon_nextPage.png",
		"_pageLevelProgress": {
			"_isEnabled": false
		}
	},



	{
		"_id":"c-700",
		"_parentId":"b-700",
		"_type":"component",
		"_component":"mcq",
		"_classes":"",
		"_layout":"full",
		"_attempts":1,
		"_setCompletionOn":"inview",
		"_shouldDisplayAttempts": false,
		"_questionWeight":1,
		"_isRandom":false,
		"_selectable":1,
		"title": "السؤال 1 من 3",
		"displayTitle": "السؤال 1 من 3",
		"body": "في أي مرحلة من عملية إنشاء الإعلان يتمكن المعلنون من تعيين خيارات الاستهداف؟ ",
		"instruction": "",
		"_items": [
			{
				"text": "مستوى الحساب الإعلاني",
				"_shouldBeSelected":false
			},
			{
				"text": "مستوى الحملة الإعلانية",
				"_shouldBeSelected":false,
				"feedback":""
			},
			{
				"text": "مستوى المجموعة الإعلانية",
				"_shouldBeSelected":true
			},
			{
				"text": "مستوى الإعلان",
				"_shouldBeSelected":false,
				"feedback":""
			}
		],
		"_feedback":{
			"correct":"الإجابة صحيحة! يمكنك إنشاء الجماهير أو تعديلها أو إضافتها على مستوى المجموعة الإعلانية. يمكن تقسيم الجماهير إلى مجموعات إعلانية منفصلة حيث يمكنك تعيين عروض أسعار مختلفة للوصول إلى كل جمهور على حدة",
			"_incorrect": {
				"notFinal": "",
				"final": "عذرًا، الإجابة ليست دقيقة. يمكنك إنشاء الجماهير أو تعديلها أو إضافتها على مستوى <strong>المجموعة الإعلانية</strong>. يمكن تقسيم الجماهير إلى مجموعات إعلانية منفصلة حيث يمكنك تعيين عروض أسعار مختلفة للوصول إلى كل جمهور على حدة"
			},
			"_buttons": {
				"_submit": {
					"buttonText": "إرسال",
					"ariaLabel": "أرسل إجابتك بالنقر هنا"
				},
				"_reset": {
					"buttonText": "إعادة تعيين",
					"ariaLabel": "أعد تعيين السؤال بالنقر هنا"
				},
				"_showCorrectAnswer": {
					"buttonText": "الإجابة الصحيحة",
					"ariaLabel": "أظهر الإجابة الصحيحة بالنقر هنا"
				},
				"_hideCorrectAnswer": {
					"buttonText": "إجابتي",
					"ariaLabel": "أظهر الإجابة التي قدمتها بالنقر هنا"
				},
				"_showFeedback": {
					"buttonText": "إظهار الملاحظات",
					"ariaLabel": "اعرض الملاحظات الخاصة بالسؤال مرة أخرى بالنقر هنا"
				},
				"remainingAttemptsText": "محاولات متبقية",
				"remainingAttemptText": "محاولة أخيرة",
				"disabledAriaLabel": "تم تعطيل هذا الزر في الوقت الحالي."
			},
			"_isComplete": false,
			"_pageLevelProgress": {
				"_isEnabled": false
			}
		}
	},
	{
		"_id":"c-710",
		"_parentId":"b-710",
		"_type":"component",
		"_component":"mcq",
		"_classes":"",
		"_layout":"full",
		"_attempts":1,
		"_setCompletionOn":"inview",
		"_shouldDisplayAttempts": false,
		"_questionWeight":1,
		"_isRandom":false,
		"_selectable":2,
		"title": "السؤال 2 من 3",
		"displayTitle": "السؤال 2 من 3",
		"body": "أنت تعمل لصالح شركة تطوير ألعاب للهواتف المحمولة. ما نوعيّ الاستهداف التي يمكن أن تساعدك في الوصول إلى جمهورك المستهدف بشكل أكثر فعالية؟ ",
		"instruction": "",
		"_items": [
			{
				"text": "حسب المنطقة",
				"_shouldBeSelected":true
			},
			{
				"text": "المعلومات الديموغرافية",
				"_shouldBeSelected":false,
				"feedback":""
			},
			{
				"text": "مستخدم هاتف محمول",
				"_shouldBeSelected":true
			},
			{
				"text": "النشاط الرقمي",
				"_shouldBeSelected":false,
				"feedback":""
			}
		],
		"_feedback":{
			"correct":"ممتاز! يتيح لك <strong>الاستهداف حسب المنطقة</strong> إمكانية الاستهداف حسب توفر متجر التطبيقات، ويمكن من خلال <strong>الاستهداف حسب الجهاز المحمول</strong> عرض الإعلانات على الأشخاص استنادًا إلى الأجهزة المحمولة التي يستخدمونها.",
			"_incorrect": {
				"notFinal": "",
				"final": "عذرًا، الإجابة ليست دقيقة. يتيح لك <strong>الاستهداف حسب المنطقة</strong> إمكانية الاستهداف حسب توفر متجر التطبيقات، ويمكن من خلال <strong>الاستهداف حسب الجهاز المحمول</strong> عرض الإعلانات على الأشخاص استنادًا إلى الأجهزة المحمولة التي يستخدمونها."
			},
			"_partlyCorrect": {
				"notFinal": "",
				"final": "الإجابة قريبة من الصواب، ولكن ليست دقيقة. يتيح لك <strong>الاستهداف حسب المنطقة</strong> إمكانية الاستهداف حسب توفر متجر التطبيقات، ويمكن من خلال <strong>الاستهداف حسب الجهاز المحمول</strong> عرض الإعلانات على الأشخاص استنادًا إلى الأجهزة المحمولة التي يستخدمونها."
			}
		},
		"_buttons": {
			"_submit": {
				"buttonText": "إرسال",
				"ariaLabel": "أرسل إجابتك بالنقر هنا"
			},
			"_reset": {
				"buttonText": "إعادة تعيين",
				"ariaLabel": "أعد تعيين السؤال بالنقر هنا"
			},
			"_showCorrectAnswer": {
				"buttonText": "الإجابة الصحيحة",
				"ariaLabel": "أظهر الإجابة الصحيحة بالنقر هنا"
			},
			"_hideCorrectAnswer": {
				"buttonText": "إجابتي",
				"ariaLabel": "أظهر الإجابة التي قدمتها بالنقر هنا"
			},
			"_showFeedback": {
				"buttonText": "إظهار الملاحظات",
				"ariaLabel": "اعرض الملاحظات الخاصة بالسؤال مرة أخرى بالنقر هنا"
			},
			"remainingAttemptsText": "محاولات متبقية",
			"remainingAttemptText": "محاولة أخيرة",
			"disabledAriaLabel": "تم تعطيل هذا الزر في الوقت الحالي."
		},
		"_isComplete": false,
		"_pageLevelProgress": {
			"_isEnabled": false
		}
	},
	{
		"_id":"c-720",
		"_parentId":"b-720",
		"_type":"component",
		"_component":"mcq",
		"_classes":"",
		"_layout":"full",
		"_attempts":1,
		"_setCompletionOn":"inview",
		"_shouldDisplayAttempts": false,
		"_questionWeight":1,
		"_isRandom":false,
		"_selectable":2,
		"title": "السؤال 3 من 3",
		"displayTitle": "السؤال 3 من 3",
		"body": "ما نوعيّ خيارات الاستهداف التي تقوم بتقييد أنواع المنتجات والخدمات التي يمكن تسويقها؟ ",
		"instruction": "",
		"_items": [
			{
				"text": "العمر",
				"_shouldBeSelected":true
			},
			{
				"text": "الجنس",
				"_shouldBeSelected":false,
				"feedback":""
			},
			{
				"text": "الانتماء متعدد الثقافات",
				"_shouldBeSelected":true
			},
			{
				"text": "الموقع",
				"_shouldBeSelected":false,
				"feedback":""
			}
		],
		"_feedback":{
			"correct":"الإجابة صحيحة! لا يمكن تسويق منتجات محددة إلى الأطفال الذين تقل أعمارهم عن 18 عامًا أو إلى الأعضاء في مجموعات الانتماء متعدد الثقافات.",
			"_incorrect": {
				"notFinal": "",
				"final": "عذرًا، الإجابة ليست دقيقة. لا يمكن تسويق منتجات محددة إلى الأطفال الذين تقل أعمارهم عن 18 عامًا أو إلى الأعضاء في مجموعات الانتماء متعدد الثقافات."
			},
			"_partlyCorrect": {
				"notFinal": "",
				"final": "الإجابة قريبة من الصواب، ولكن ليست دقيقة. لا يمكن تسويق منتجات محددة إلى الأطفال الذين تقل أعمارهم عن 18 عامًا أو إلى الأعضاء في مجموعات الانتماء متعدد الثقافات."
			}
		},
		"_buttons": {
			"_submit": {
				"buttonText": "إرسال",
				"ariaLabel": "أرسل إجابتك بالنقر هنا"
			},
			"_reset": {
				"buttonText": "إعادة تعيين",
				"ariaLabel": "أعد تعيين السؤال بالنقر هنا"
			},
			"_showCorrectAnswer": {
				"buttonText": "الإجابة الصحيحة",
				"ariaLabel": "أظهر الإجابة الصحيحة بالنقر هنا"
			},
			"_hideCorrectAnswer": {
				"buttonText": "إجابتي",
				"ariaLabel": "أظهر الإجابة التي قدمتها بالنقر هنا"
			},
			"_showFeedback": {
				"buttonText": "إظهار الملاحظات",
				"ariaLabel": "اعرض الملاحظات الخاصة بالسؤال مرة أخرى بالنقر هنا"
			},
			"remainingAttemptsText": "محاولات متبقية",
			"remainingAttemptText": "محاولة أخيرة",
			"disabledAriaLabel": "تم تعطيل هذا الزر في الوقت الحالي."
		},
		"_isComplete": false,
		"_pageLevelProgress": {
			"_isEnabled": false
		}
	},
	{
		"_id":"c-799",
		"_parentId":"b-799",
		"_type":"component",
		"_component":"co-jump",
		"_classes":"color-test",
		"_autoComplete":true,
		"_preLinkBody":"انقر على الزر التالي لإنهاء هذه الدورة التدريبية. ملاحظة: <a href='#'>انقر هنا</a> للتحقق من اكتمال أشرطة الحالة لكل وحدة.<br>",
		"_linkBody":"<div style='text-align:center;padding:8px;'><button class='buttons-action'><strong>لقد أنهيت هذه الدورة التدريبية</strong></button></div><br> ",
		"_postLinkBody":"",
		"_link":"",
		"_pageLevelProgress": {
			"_isEnabled": false
		}
	}
]
