﻿[
	{
		"_id":"co-01",
		"_parentId":"course",
		"_type":"page",
		"_classes":"",
		"height":"570",
		"title":"مقدمة",
		"displayTitle":"مقدمة",
		"body":"تساعد أدوات الاستهداف من فيسبوك مسؤولي التسويق في توصيل الرسالة المناسبة إلى الجمهور المناسب في اللحظة المناسبة.",
		"_graphic": {
			"alt": "مقدمة",
			"src": "course/en/images/co-01.png"
		},
		"linkText":"عرض",
		"durationLabel": "المدة:",
		"duration": "4 دقائق",
		"_pageLevelProgress": {
			"_isEnabled": true
		}
	},
	{
		"_id":"co-02",
		"_parentId":"course",
		"_type":"page",
		"_classes":"",
		"height":"570",
		"title":"الموقع والمعلومات الديموغرافية",
		"displayTitle":"الموقع والمعلومات الديموغرافية",
		"body":"تتيح لك أدوات الاستهداف التي يوفرها فيسبوك إمكانية الوصول إلى الأشخاص استنادًا إلى الموقع أو إلى المعلومات الديموغرافية مثل العمر والجنس ومستوى التعليم وغير ذلك الكثير.",
		"_graphic": {
			"alt": "الوصول والدقة ومرات الظهور التي لم تتم مشاهدتها",
			"src": "course/en/images/co-02.png"
		},
		"linkText":"عرض",
		"durationLabel": "المدة:",
		"duration": "6 دقائق",
		"_pageLevelProgress": {
			"_isEnabled": true
		}
	},
	{
		"_id":"co-03",
		"_parentId":"co-03",
		"_type":"page",
		"_classes":"",
		"height":"570",
		"title":"الاهتمامات والسلوكيات",
		"displayTitle":"الاهتمامات والسلوكيات",
		"body":"يمكنك تعيين استهداف إعلاناتك استنادًا إلى اهتمامات الأشخاص العامة وسلوكياتهم على الإنترنت. ",
		"_graphic": {
			"alt": "",
			"src": "course/en/images/co-03.png"
		},
		"linkText":"عرض",
		"durationLabel": "المدة:",
		"duration": "4 دقائق",
		"_pageLevelProgress": {
			"_isEnabled": true
		}
	},
	{
		"_id":"co-04",
		"_parentId":"course",
		"_type":"page",
		"_classes":"",
		"height":"570",
		"title":"الانتماء متعدد الثقافات (الولايات المتحدة فقط)",
		"displayTitle":"الانتماء متعدد الثقافات (الولايات المتحدة فقط)",
		"body":"يمكنك التواصل مع الجماهير التي تشكل نسبة متزايدة من سكان الولايات المتحدة الأمريكية.",
		"_graphic": {
			"alt": "الانتماء متعدد الثقافات (الولايات المتحدة فقط)",
			"src": "course/en/images/co-04.png"
		},
		"linkText":"عرض",
		"durationLabel": "المدة:",
		"duration": "6 دقائق",
		"_pageLevelProgress": {
			"_isEnabled": true
		}
	},
	{
		"_id":"co-05",
		"_parentId":"course",
		"_type":"page",
		"_classes":"",
		"height":"570",
		"title":"الأجهزة والتفاعل",
		"displayTitle":"الأجهزة والتفاعل",
		"body":"يمكنك الوصول إلى الأشخاص طبقًا للأجهزة التي يستخدمونها للاتصال بفيسبوك والصفحات والأشخاص المتصلين بهم. ",
		"_graphic": {
			"alt": "الخطوات التفصيلية",
			"src": "course/en/images/co-05.png"
		},
		"linkText":"عرض",
		"durationLabel": "المدة:",
		"duration": "4 دقائق",
		"_pageLevelProgress": {
			"_isEnabled": true
		}
	},
	{
		"_id":"co-06",
		"_parentId":"course",
		"_type":"page",
		"_classes":"",
		"height":"570",
		"title":"تعديل الجماهير وإدارتها",
		"displayTitle":"تعديل الجماهير وإدارتها",
		"body":"يمكنك اكتشاف تاريخ الإنشاء والاستخدام لكل جماهير صفحتك. يمكنك تعديل الجماهير ومشاركتها بأمان واكتشاف تداخل الجماهير.",
		"_graphic": {
			"alt": "الجماهير الأساسية",
			"src": "course/en/images/co-06.png"
		},
		"linkText":"عرض",
		"durationLabel": "المدة:",
		"duration": "4 دقائق",
		"_pageLevelProgress": {
			"_isEnabled": true
		}
	},
	{
		"_id":"co-07",
		"_parentId":"course",
		"_type":"page",
		"_classes":"",
		"height":"570",
		"title":"اختبار مستوى المعرفة",
		"displayTitle":"اختبار مستوى المعرفة",
		"body":"قم بمراجعة ما تعلمته عن تعيين استهداف الإعلانات على فيسبوك.",
		"_graphic": {
			"alt": "الخطوات التفصيلية",
			"src": "course/en/images/co-07.png"
		},
		"linkText":"عرض",
		"durationLabel": "المدة:",
		"duration": "دقيقتان",
		"_pageLevelProgress": {
			"_isEnabled": true
		}
	}
]