<!-- Generator: Adobe Illustrator 18.1.0, SVG Export Plug-In  -->
<svg version="1.1"
	 xmlns="http://www.w3.org/2000/svg" xmlns:xlink="http://www.w3.org/1999/xlink" xmlns:a="http://ns.adobe.com/AdobeSVGViewerExtensions/3.0/"
	 x="0px" y="0px" width="28px" height="51px" viewBox="0 0 28 51" enable-background="new 0 0 28 51" xml:space="preserve">
<defs>
</defs>
<path fill="#6B7386" d="M15.9,47.4c0,1.1-0.9,2-2,2s-2-0.9-2-2c0-1.1,0.9-2,2-2S15.9,46.3,15.9,47.4z M28,2v47c0,1.1-0.9,2-2,2H2
	c-1.1,0-2-0.9-2-2V2c0-1.1,0.9-2,2-2h24C27.1,0,28,0.9,28,2z M10.5,2.5C10.5,2.8,10.7,3,11,3h6c0.3,0,0.5-0.2,0.5-0.5S17.3,2,17,2
	h-6C10.7,2,10.5,2.2,10.5,2.5z M16.4,46.4c0-1.4-1.1-2.5-2.5-2.5s-2.5,1.1-2.5,2.5c0,1.4,1.1,2.5,2.5,2.5S16.4,47.8,16.4,46.4z
	 M26,5H2v36v1h24v-1V5z"/>
</svg>
