<!-- Generator: Adobe Illustrator 18.1.0, SVG Export Plug-In  -->
<svg version="1.1"
	 xmlns="http://www.w3.org/2000/svg" xmlns:xlink="http://www.w3.org/1999/xlink" xmlns:a="http://ns.adobe.com/AdobeSVGViewerExtensions/3.0/"
	 x="0px" y="0px" width="28px" height="51px" viewBox="0 0 28 51" enable-background="new 0 0 28 51" xml:space="preserve">
<defs>
</defs>
<g>
	<circle fill="none" cx="13.9" cy="47.4" r="2"/>
	<path fill="#FFFFFF" d="M26,0H2C0.9,0,0,0.9,0,2v47c0,1.1,0.9,2,2,2h24c1.1,0,2-0.9,2-2V2C28,0.9,27.1,0,26,0z M11,2h6
		c0.3,0,0.5,0.2,0.5,0.5S17.3,3,17,3h-6c-0.3,0-0.5-0.2-0.5-0.5S10.7,2,11,2z M13.9,48.9c-1.4,0-2.5-1.1-2.5-2.5
		c0-1.4,1.1-2.5,2.5-2.5s2.5,1.1,2.5,2.5C16.4,47.8,15.3,48.9,13.9,48.9z M26,41v1H2v-1V5h24V41z"/>
</g>
</svg>
