<!-- Generator: Adobe Illustrator 18.1.0, SVG Export Plug-In  -->
<svg version="1.1"
	 xmlns="http://www.w3.org/2000/svg" xmlns:xlink="http://www.w3.org/1999/xlink" xmlns:a="http://ns.adobe.com/AdobeSVGViewerExtensions/3.0/"
	 x="0px" y="0px" width="202.3px" height="166.3px" viewBox="0 0 202.3 166.3" enable-background="new 0 0 202.3 166.3"
	 xml:space="preserve">
<defs>
</defs>
<g>
	<g>
		<g>
			<path fill="#FFFFFF" d="M31.6,17.8c-3.7,0-6.7-3-6.7-6.7c0-3.7,3-6.7,6.7-6.7c3.7,0,6.7,3,6.7,6.7C38.3,14.8,35.3,17.8,31.6,17.8
				z"/>
		</g>
		<g>
			<path fill="#FFFFFF" d="M21,19h21.4c1.7,0,1.4,1.3,1.4,3v8.2v1.4v8.9c0,1.2-1,2.2-2.2,2.2c-1.2,0-2.2-1-2.2-2.2v-8.9v-1.4V25
				h-1.1v17.6h0v10.5c0,0.2,0,0.3,0,0.4c0,0.1,0,0.3,0,0.4v11.7c0,2-1.4,3.6-3.2,3.6c-1.8,0-3.2-1.6-3.2-3.6V54c0-0.1,0-0.3,0-0.4
				c0-0.1,0-0.3,0-0.4V42.6H31v10.5c0,0.2,0,0.3,0,0.4c0,0.1,0,0.3,0,0.4v11.7c0,2-1.4,3.6-3.2,3.6c-1.8,0-3.2-1.6-3.2-3.6V54
				c0-0.1,0-0.3,0-0.4c0-0.1,0-0.3,0-0.4V42.6h-0.1V25h-1v5.2v1.4v8.9c0,1.2-1,2.2-2.2,2.2c-1.2,0-2.2-1-2.2-2.2v-8.9v-1.4v-8.9
				c0-0.2,0-0.4,0.1-0.6C19.4,19.6,19.8,19,21,19z"/>
		</g>
	</g>
	<g>
		<g>
			<path fill="#FFFFFF" d="M107,98.4c-3.7,0-6.7-3-6.7-6.7c0-3.7,3-6.7,6.7-6.7c3.7,0,6.7,3,6.7,6.7C113.7,95.4,110.7,98.4,107,98.4
				z"/>
		</g>
		<g>
			<path fill="#FFFFFF" d="M96.5,99.5h21.4c1.7,0,1.4,1.3,1.4,3v8.2v1.4v8.9c0,1.2-1,2.2-2.2,2.2c-1.2,0-2.2-1-2.2-2.2v-8.9v-1.4
				v-5.2h-1.1v17.6h0v10.5c0,0.2,0,0.3,0,0.4c0,0.2,0,0.3,0,0.4v11.7c0,2-1.4,3.6-3.2,3.6c-1.8,0-3.2-1.6-3.2-3.6v-11.7
				c0-0.1,0-0.3,0-0.4c0-0.1,0-0.3,0-0.4v-10.5h-0.9v10.5c0,0.2,0,0.3,0,0.4c0,0.2,0,0.3,0,0.4v11.7c0,2-1.4,3.6-3.2,3.6
				c-1.8,0-3.2-1.6-3.2-3.6v-11.7c0-0.1,0-0.3,0-0.4c0-0.1,0-0.3,0-0.4v-10.5h0v-17.6h-1v5.2v1.4v8.9c0,1.2-1,2.2-2.2,2.2
				c-1.2,0-2.2-1-2.2-2.2v-8.9v-1.4v-8.9c0-0.2,0-0.4,0.1-0.6C94.8,100.2,95.3,99.5,96.5,99.5z"/>
		</g>
	</g>
	<g>
		<g>
			<path fill="#FFFFFF" d="M63.8,64.5c-3.7,0-6.7-3-6.7-6.7c0-3.7,3-6.7,6.7-6.7c3.7,0,6.7,3,6.7,6.7C70.5,61.5,67.5,64.5,63.8,64.5
				z"/>
		</g>
		<g>
			<path fill="#FFFFFF" d="M53.2,65.7h21.4c1.7,0,1.4,1.3,1.4,3v8.2v1.4v8.9c0,1.2-1,2.2-2.2,2.2c-1.2,0-2.2-1-2.2-2.2v-8.9v-1.4
				v-5.2h-1.1v17.6h0v10.5c0,0.1,0,0.3,0,0.4c0,0.2,0,0.3,0,0.4v11.7c0,2-1.4,3.6-3.2,3.6c-1.8,0-3.2-1.6-3.2-3.6v-11.7
				c0-0.1,0-0.3,0-0.4c0-0.1,0-0.3,0-0.4V89.3h-0.9v10.5c0,0.1,0,0.3,0,0.4c0,0.2,0,0.3,0,0.4v11.7c0,2-1.4,3.6-3.2,3.6
				c-1.8,0-3.2-1.6-3.2-3.6v-11.7c0-0.1,0-0.3,0-0.4c0-0.1,0-0.3,0-0.4V89.3h-0.1V71.7h-1v5.2v1.4v8.9c0,1.2-1,2.2-2.2,2.2
				c-1.2,0-2.2-1-2.2-2.2v-8.9v-1.4v-8.9c0-0.2,0-0.4,0.1-0.6C51.6,66.4,52,65.7,53.2,65.7z"/>
		</g>
	</g>
	<g>
		<g>
			<path fill="#FFFFFF" d="M152.8,19.7c-3.7,0-6.7-3-6.7-6.7c0-3.7,3-6.7,6.7-6.7c3.7,0,6.7,3,6.7,6.7
				C159.5,16.7,156.5,19.7,152.8,19.7z"/>
		</g>
		<g>
			<path fill="#FFFFFF" d="M142.2,20.9h21.4c1.7,0,1.4,1.3,1.4,3v8.2v1.4v8.9c0,1.2-1,2.2-2.2,2.2c-1.2,0-2.2-1-2.2-2.2v-8.9v-1.4
				v-5.2h-1.1v17.6h0V55c0,0.2,0,0.3,0,0.4c0,0.2,0,0.3,0,0.4v11.7c0,2-1.4,3.6-3.2,3.6c-1.8,0-3.2-1.6-3.2-3.6V55.9
				c0-0.1,0-0.3,0-0.4c0-0.1,0-0.3,0-0.4V44.5h-0.9V55c0,0.2,0,0.3,0,0.4c0,0.2,0,0.3,0,0.4v11.7c0,2-1.4,3.6-3.2,3.6
				c-1.8,0-3.2-1.6-3.2-3.6V55.9c0-0.1,0-0.3,0-0.4c0-0.1,0-0.3,0-0.4V44.5h-0.1V26.9h-1v5.2v1.4v8.9c0,1.2-1,2.2-2.2,2.2
				c-1.2,0-2.2-1-2.2-2.2v-8.9v-1.4v-8.9c0-0.2,0-0.4,0.1-0.6C140.6,21.6,141.1,20.9,142.2,20.9z"/>
		</g>
	</g>
	<g>
		<g>
			<path fill="#FFFFFF" d="M190,78.7c-3.7,0-6.7-3-6.7-6.7c0-3.7,3-6.7,6.7-6.7c3.7,0,6.7,3,6.7,6.7C196.7,75.7,193.7,78.7,190,78.7
				z"/>
		</g>
		<g>
			<path fill="#FFFFFF" d="M179.4,79.9h21.4c1.7,0,1.4,1.3,1.4,3v8.2v1.4v8.9c0,1.2-1,2.2-2.2,2.2c-1.2,0-2.2-1-2.2-2.2v-8.9v-1.4
				v-5.2h-1.1v17.6h0V114c0,0.2,0,0.3,0,0.4c0,0.2,0,0.3,0,0.4v11.7c0,2-1.4,3.6-3.2,3.6c-1.8,0-3.2-1.6-3.2-3.6v-11.7
				c0-0.1,0-0.3,0-0.4c0-0.1,0-0.3,0-0.4v-10.5h-0.9V114c0,0.2,0,0.3,0,0.4c0,0.2,0,0.3,0,0.4v11.7c0,2-1.4,3.6-3.2,3.6
				c-1.8,0-3.2-1.6-3.2-3.6v-11.7c0-0.1,0-0.3,0-0.4c0-0.1,0-0.3,0-0.4v-10.5H183V85.9h-1v5.2v1.4v8.9c0,1.2-1,2.2-2.2,2.2
				c-1.2,0-2.2-1-2.2-2.2v-8.9v-1.4v-8.9c0-0.2,0-0.4,0.1-0.6C177.8,80.5,178.2,79.9,179.4,79.9z"/>
		</g>
	</g>
	<g>
		<g>
			<path fill="#FFFFFF" d="M152.8,116.5c-3.5,0-6.4-2.9-6.4-6.5c0-3.6,2.9-6.5,6.4-6.5c3.5,0,6.4,2.9,6.4,6.5
				C159.2,113.6,156.3,116.5,152.8,116.5z"/>
		</g>
		<g>
			<path fill="#FFFFFF" d="M137.1,137.1l2.5-8.3l0,0l2.9-9.6c0.3-1,1.3-1.6,2.2-1.5v0h1.3h6.6h6.6h1.4v0c1-0.1,1.9,0.5,2.2,1.5
				l2.9,9.6l0,0l2.5,8.3c0.3,1.1-0.3,2.3-1.4,2.7c-1.1,0.3-2.3-0.3-2.7-1.4l-2.9-9.6h0l-1.8-6l-1.3,0l0,0.2l7,22.5h-5.8v5.3
				c0,0.1,0,0.3,0,0.4c0,0.1,0,0.3,0,0.4v11.3c0,1.9-1.4,3.4-3.1,3.4c-1.7,0-3.1-1.5-3.1-3.4v-11.3c0-0.1,0-0.3,0-0.4
				c0-0.1,0-0.3,0-0.4v-5.3h-0.5h-0.5v5.3c0,0.1,0,0.3,0,0.4c0,0.1,0,0.3,0,0.4v11.3c0,1.9-1.4,3.4-3.1,3.4c-1.7,0-3.1-1.5-3.1-3.4
				v-11.3c0-0.1,0-0.3,0-0.4c0-0.1,0-0.3,0-0.4v-5.3h-5.8l7-22.5l0-0.2l-1.3,0l-1.8,6l0,0l-2.9,9.6c-0.3,1.1-1.5,1.8-2.7,1.4
				C137.4,139.4,136.8,138.2,137.1,137.1z"/>
		</g>
	</g>
	<g>
		<g>
			<path fill="#FFFFFF" d="M15.7,93.6c-3.5,0-6.4-2.9-6.4-6.5c0-3.6,2.9-6.5,6.4-6.5c3.5,0,6.4,2.9,6.4,6.5
				C22.2,90.7,19.3,93.6,15.7,93.6z"/>
		</g>
		<g>
			<path fill="#FFFFFF" d="M0.1,114.2l2.5-8.3l0,0l2.9-9.6c0.3-1,1.3-1.6,2.2-1.5v0h1.4h6.6h6.6h1.4v0c1-0.1,1.9,0.5,2.2,1.5
				l2.9,9.6l0,0l2.5,8.3c0.3,1.1-0.3,2.3-1.4,2.6c-1.1,0.3-2.3-0.3-2.7-1.4l-2.9-9.5h0l-1.8-6l-1.3,0l0,0.2l7,22.5h-5.8v5.3
				c0,0.1,0,0.3,0,0.4c0,0.1,0,0.3,0,0.4v11.3c0,1.9-1.4,3.4-3.1,3.4c-1.7,0-3.1-1.5-3.1-3.4v-11.3c0-0.1,0-0.3,0-0.4
				c0-0.1,0-0.3,0-0.4v-5.3h-0.5h-0.5v5.3c0,0.1,0,0.3,0,0.4c0,0.1,0,0.3,0,0.4v11.3c0,1.9-1.4,3.4-3.1,3.4c-1.7,0-3.1-1.5-3.1-3.4
				v-11.3c0-0.1,0-0.3,0-0.4c0-0.1,0-0.3,0-0.4v-5.3H3.2l7-22.5l0-0.2l-1.3,0l-1.8,6l0,0l-2.9,9.5c-0.3,1.1-1.5,1.8-2.7,1.4
				C0.4,116.5-0.3,115.3,0.1,114.2z"/>
		</g>
	</g>
	<g>
		<g>
			<path fill="#FFFFFF" d="M100.6,13c-3.5,0-6.4-2.9-6.4-6.5c0-3.6,2.9-6.5,6.4-6.5c3.5,0,6.4,2.9,6.4,6.5
				C107,10.1,104.1,13,100.6,13z"/>
		</g>
		<g>
			<path fill="#FFFFFF" d="M84.9,33.6l2.5-8.3l0,0l2.9-9.6c0.3-1,1.3-1.6,2.2-1.5v0h1.3h6.6h6.6h1.4v0c1-0.1,1.9,0.5,2.2,1.5
				l2.9,9.6l0,0l2.5,8.3c0.3,1.1-0.3,2.3-1.4,2.6c-1.1,0.3-2.3-0.3-2.7-1.4l-2.9-9.5h0l-1.8-6l-1.3,0l0,0.2l7,22.5h-5.8v5.3
				c0,0.1,0,0.3,0,0.4c0,0.1,0,0.3,0,0.4v11.3c0,1.9-1.4,3.4-3.1,3.4c-1.7,0-3.1-1.5-3.1-3.4V48c0-0.1,0-0.3,0-0.4
				c0-0.1,0-0.3,0-0.4v-5.3h-0.5H100v5.3c0,0.1,0,0.3,0,0.4c0,0.1,0,0.3,0,0.4v11.3c0,1.9-1.4,3.4-3.1,3.4c-1.7,0-3.1-1.5-3.1-3.4
				V48c0-0.1,0-0.3,0-0.4c0-0.1,0-0.3,0-0.4v-5.3H88l7-22.5l0-0.2l-1.3,0l-1.8,6l0,0L89,34.8c-0.3,1.1-1.5,1.8-2.7,1.4
				C85.2,35.9,84.6,34.7,84.9,33.6z"/>
		</g>
	</g>
</g>
</svg>
