<!-- Generator: Adobe Illustrator 18.1.0, SVG Export Plug-In  -->
<svg version="1.1"
	 xmlns="http://www.w3.org/2000/svg" xmlns:xlink="http://www.w3.org/1999/xlink" xmlns:a="http://ns.adobe.com/AdobeSVGViewerExtensions/3.0/"
	 x="0px" y="0px" width="543.4px" height="241.5px" viewBox="0 0 543.4 241.5" enable-background="new 0 0 543.4 241.5"
	 xml:space="preserve">
<defs>
</defs>
<g>
	<path fill="#231F20" d="M203.8,1.9v8.5h-1V1.9h-3.3V1h7.6v0.9H203.8z"/>
	<path fill="#231F20" d="M209.1,2c-0.4,0-0.6-0.3-0.6-0.7c0-0.3,0.2-0.7,0.6-0.7c0.4,0,0.6,0.3,0.6,0.7C209.7,1.6,209.5,2,209.1,2z
		 M208.6,10.5V3.6l0.9-0.2v7.1H208.6z"/>
	<path fill="#231F20" d="M220.4,10.5V6c0-1.2-0.5-1.8-1.5-1.8c-0.7,0-1.4,0.4-1.9,0.9c0,0.1,0,0.5,0,0.6v4.7h-0.9V6
		c0-1.2-0.5-1.8-1.5-1.8c-0.7,0-1.4,0.3-1.9,0.8v5.4h-0.9V3.6l0.9-0.2c0,0,0,0.9,0,1c0.7-0.6,1.5-1,2.2-1c0.9,0,1.5,0.4,1.9,1.1
		c0.8-0.8,1.6-1.1,2.4-1.1c1.3,0,2.1,0.9,2.1,2.4v4.7H220.4z"/>
	<path fill="#231F20" d="M224,7.1c0,1.6,1,2.7,2.4,2.7c0.8,0,1.5-0.2,2-0.6l0.2,0.9c-0.6,0.4-1.4,0.6-2.2,0.6c-2,0-3.3-1.5-3.3-3.6
		c0-2.2,1.4-3.7,3.3-3.7c1.5,0,2.5,1,2.5,2.6c0,0.4-0.1,0.8-0.2,1.1L224,7.1L224,7.1z M227.9,6.3c0-0.1,0-0.2,0-0.3
		c0-1.1-0.6-1.8-1.7-1.8c-1.2,0-2,1-2.2,2.1L227.9,6.3z"/>
	<path fill="#231F20" d="M235.7,10.7c-0.8,0-1.7-0.2-2.3-0.6l0.3-0.9c0.6,0.4,1.3,0.6,2,0.6c0.8,0,1.6-0.4,1.6-1.2
		c0-0.8-0.9-1.1-1.7-1.3c-1-0.3-2-0.8-2-2c0-1.3,1-2,2.3-2c0.8,0,1.5,0.2,2.1,0.5l-0.3,0.8c-0.6-0.3-1.3-0.5-1.9-0.5
		c-0.8,0-1.4,0.4-1.4,1.1c0,0.8,0.8,1,1.7,1.3c1,0.3,2,0.7,2,2C238.2,9.9,237.1,10.7,235.7,10.7z"/>
	<path fill="#231F20" d="M242.8,3.4c1.9,0,3.1,1.5,3.1,3.6c0,2.1-1.4,3.7-3.4,3.7c-0.5,0-1.2-0.2-1.7-0.4V14h-0.9V3.5l0.9-0.2
		c0,0,0,0.9,0,0.9C241.3,3.8,242,3.4,242.8,3.4z M240.8,9.3c0.4,0.3,1.1,0.5,1.7,0.5c1.5,0,2.4-1.2,2.4-2.8c0-1.6-0.9-2.7-2.3-2.7
		c-0.7,0-1.4,0.3-1.9,0.8C240.8,5,240.8,9.3,240.8,9.3z"/>
	<path fill="#231F20" d="M248.1,7.1c0,1.6,1,2.7,2.4,2.7c0.8,0,1.5-0.2,2-0.6l0.2,0.9c-0.6,0.4-1.4,0.6-2.2,0.6
		c-2,0-3.3-1.5-3.3-3.6c0-2.2,1.4-3.7,3.3-3.7c1.5,0,2.5,1,2.5,2.6c0,0.4-0.1,0.8-0.2,1.1L248.1,7.1L248.1,7.1z M252,6.3
		c0-0.1,0-0.2,0-0.3c0-1.1-0.6-1.8-1.7-1.8c-1.2,0-2,1-2.2,2.1L252,6.3z"/>
	<path fill="#231F20" d="M259.3,10.5V6c0-1.2-0.5-1.8-1.5-1.8c-0.8,0-1.5,0.4-2.1,1v5.2h-0.9V3.6l0.9-0.2v1.1
		c0.7-0.7,1.6-1.1,2.4-1.1c1.4,0,2.2,0.9,2.2,2.4v4.7H259.3z"/>
	<path fill="#231F20" d="M264.3,10.7c-1.3,0-1.9-0.7-1.9-2.2l0.1-4.1l-1.1-0.1l0-0.6l1-0.2l0-1.6h0.9l0,1.6h2.3l0,0.8h-2.3l-0.1,4.1
		c0,0.9,0.3,1.3,1,1.3c0.5,0,0.9-0.2,1.3-0.3l0.2,0.8C265.3,10.6,264.8,10.7,264.3,10.7z"/>
	<path fill="#231F20" d="M273.7,10.7c-1.9,0-3.3-1.4-3.3-3.6c0-2.2,1.5-3.7,3.4-3.7s3.3,1.4,3.3,3.6
		C277.1,9.2,275.6,10.7,273.7,10.7z M273.7,4.2c-1.5,0-2.4,1.2-2.4,2.8c0,1.7,1,2.8,2.4,2.8s2.4-1.2,2.4-2.8
		C276.2,5.3,275.2,4.2,273.7,4.2z"/>
	<path fill="#231F20" d="M283.4,10.5V6c0-1.2-0.5-1.8-1.5-1.8c-0.8,0-1.5,0.4-2.1,1v5.2h-0.9V3.6l0.9-0.2v1.1
		c0.7-0.7,1.6-1.1,2.4-1.1c1.4,0,2.2,0.9,2.2,2.4v4.7H283.4z"/>
	<path fill="#231F20" d="M298.5,10.5V6c0-1.2-0.5-1.8-1.5-1.8c-0.7,0-1.4,0.4-1.9,0.9c0,0.1,0,0.5,0,0.6v4.7h-0.9V6
		c0-1.2-0.5-1.8-1.5-1.8c-0.7,0-1.4,0.3-1.9,0.8v5.4h-0.9V3.6l0.9-0.2c0,0,0,0.9,0,1c0.7-0.6,1.5-1,2.2-1c0.9,0,1.5,0.4,1.9,1.1
		c0.8-0.8,1.6-1.1,2.4-1.1c1.3,0,2.1,0.9,2.1,2.4v4.7H298.5z"/>
	<path fill="#231F20" d="M304.5,10.7c-1.9,0-3.3-1.4-3.3-3.6c0-2.2,1.5-3.7,3.4-3.7c1.9,0,3.3,1.4,3.3,3.6
		C307.9,9.2,306.4,10.7,304.5,10.7z M304.5,4.2c-1.5,0-2.4,1.2-2.4,2.8c0,1.7,1,2.8,2.4,2.8c1.5,0,2.4-1.2,2.4-2.8
		C307,5.3,306,4.2,304.5,4.2z"/>
	<path fill="#231F20" d="M312.3,10.7c-0.6,0-1.2-0.2-1.7-0.4l-0.9,0.4V0.3l0.9-0.2c0,0,0,4.1,0,4.2c0.5-0.4,1.2-0.9,2.1-0.9
		c1.8,0,3,1.5,3,3.5C315.7,9.1,314.2,10.7,312.3,10.7z M312.5,4.3c-0.8,0-1.4,0.3-1.9,0.8c0,0,0,4.2,0,4.2c0.4,0.3,1.1,0.5,1.7,0.5
		c1.5,0,2.4-1.2,2.4-2.9C314.7,5.4,313.8,4.3,312.5,4.3z"/>
	<path fill="#231F20" d="M317.8,2c-0.4,0-0.6-0.3-0.6-0.7c0-0.3,0.2-0.7,0.6-0.7s0.6,0.3,0.6,0.7C318.5,1.6,318.3,2,317.8,2z
		 M317.4,10.5V3.6l0.9-0.2v7.1H317.4z"/>
	<path fill="#231F20" d="M320.5,10.5V0.3l0.9-0.2v10.4H320.5z"/>
	<path fill="#231F20" d="M324.1,7.1c0,1.6,1,2.7,2.4,2.7c0.8,0,1.5-0.2,2-0.6l0.2,0.9c-0.6,0.4-1.4,0.6-2.2,0.6
		c-2,0-3.3-1.5-3.3-3.6c0-2.2,1.4-3.7,3.3-3.7c1.5,0,2.5,1,2.5,2.6c0,0.4-0.1,0.8-0.2,1.1L324.1,7.1L324.1,7.1z M328,6.3
		c0-0.1,0-0.2,0-0.3c0-1.1-0.6-1.8-1.7-1.8c-1.2,0-2,1-2.2,2.1L328,6.3z"/>
	<path fill="#231F20" d="M334.1,7.1c0-3.7,2.4-6.2,4.1-7.1l0.4,0.7c-1.6,0.8-3.7,3.2-3.7,6.4c0,3.2,2.1,5.5,3.7,6.4l-0.4,0.7
		C336.5,13.2,334.1,10.7,334.1,7.1z"/>
	<path fill="#231F20" d="M343,10.7c-2.3,0-3.5-1.4-3.5-3.7V1h0.9v5.9c0,1.8,0.9,2.9,2.6,2.9c1.7,0,2.6-1,2.6-2.9c0,0,0-5.8,0-5.8h1
		c0,0,0,5.8,0,5.8C346.6,9.2,345.4,10.7,343,10.7z"/>
	<path fill="#231F20" d="M353.5,8c0-1.1-0.9-1.5-2.4-2c-1.3-0.4-2.7-1-2.7-2.6c0-1.5,1.3-2.6,3-2.6c1.1,0,2,0.3,2.8,0.8l-0.3,0.8
		c-0.7-0.5-1.6-0.8-2.5-0.8c-1.4,0-2.1,0.8-2.1,1.6c0,1,0.9,1.4,2.4,1.9c1.4,0.4,2.7,1,2.7,2.7c0,1.6-1.3,2.7-3.2,2.7
		c-1.1,0-2.2-0.3-3-0.9l0.3-0.9c0.8,0.5,1.6,0.9,2.7,0.9C352.6,9.8,353.5,9,353.5,8z"/>
	<path fill="#231F20" d="M354.8,13.5c1.6-0.8,3.6-3.2,3.6-6.4c0-3.2-2-5.6-3.6-6.4l0.4-0.7c1.7,0.9,4.1,3.4,4.1,7.1
		s-2.4,6.2-4.1,7.1L354.8,13.5z"/>
</g>
<g>
	<path fill="#231F20" d="M53.6,26.5c0,1.8-1.5,2.9-3.3,2.9c-0.9,0-1.8-0.2-2.4-0.6l0.2-0.9c0.5,0.3,1.3,0.6,2.2,0.6
		c1.3,0,2.3-0.7,2.3-2c0-1.1-0.9-1.8-2.1-1.8c-0.4,0-0.9,0-1.4,0.1v-0.8c1.8-0.4,3.1-1.2,3.1-2.4c0-1-0.7-1.6-1.8-1.6
		c-0.8,0-1.6,0.4-2.2,0.9l-0.3-0.8c0.7-0.5,1.6-1,2.7-1c1.7,0,2.7,1,2.7,2.3c0,1.2-1,2.1-2.1,2.5C52.7,24.2,53.6,25.3,53.6,26.5z"/>
	<path fill="#231F20" d="M58.2,26.8c-2.1,0-3.6-1.6-3.6-3.8s1.6-3.8,3.6-3.8c2.1,0,3.7,1.6,3.7,3.8S60.3,26.8,58.2,26.8z M58.2,20.2
		c-1.6,0-2.7,1.2-2.7,2.9s1.1,2.9,2.7,2.9c1.6,0,2.7-1.2,2.7-2.9S59.8,20.2,58.2,20.2z"/>
	<path fill="#231F20" d="M63.6,26.8c-0.4,0-0.8-0.4-0.8-0.8c0-0.4,0.3-0.8,0.8-0.8s0.8,0.3,0.8,0.8C64.4,26.4,64.1,26.8,63.6,26.8z"
		/>
	<path fill="#231F20" d="M71.1,26.4v3h-0.9v-3h-4.6l-0.1-0.6l4.8-6.5h0.8v6.3h1.4l0,0.9H71.1z M70.2,20.7l-3.5,4.8h3.5V20.7z"/>
</g>
<g>
	<path fill="#231F20" d="M116.5,154.9l-0.3-0.9c2.5-0.6,4.1-2.2,4.5-4.1l0,0c-0.7,0.6-1.5,1.1-2.5,1.1c-1.4,0-2.7-1-2.7-2.8
		c0-1.8,1.2-3.1,3.1-3.1c2,0,3.2,1.7,3.2,3.8C121.8,151.4,120.1,154.1,116.5,154.9z M118.5,145.9c-1.3,0-2.1,0.9-2.1,2.2
		c0,1.3,0.9,2,2,2c0.9,0,1.8-0.4,2.4-1c0-0.2,0-0.3,0-0.5C120.8,147.2,120,145.9,118.5,145.9z"/>
	<path fill="#231F20" d="M123.8,152.6c-0.4,0-0.8-0.4-0.8-0.8c0-0.4,0.3-0.8,0.8-0.8s0.8,0.3,0.8,0.8
		C124.6,152.2,124.2,152.6,123.8,152.6z"/>
	<path fill="#231F20" d="M127.9,149.1c1.9,0,3.1,1.2,3.1,2.9c0,1.9-1.5,3.2-3.3,3.2c-0.9,0-1.8-0.3-2.4-0.6l0.2-0.9
		c0.6,0.3,1.4,0.6,2.3,0.6c1.3,0,2.3-0.9,2.3-2.3c0-1.1-0.9-2.1-2.3-2.1c-0.9,0-1.3,0.1-1.8,0.3l-0.3-0.3l0.6-4.7h4.5l0,0.9h-3.8
		l-0.4,3.1C127,149.2,127.3,149.1,127.9,149.1z"/>
</g>
<g>
	<path fill="#231F20" d="M178.2,154.6l0-0.9h6v0.8l-4.3,9.2h-1l4.2-9H178.2z"/>
	<path fill="#231F20" d="M185.4,161c-0.4,0-0.8-0.4-0.8-0.8c0-0.4,0.3-0.8,0.8-0.8s0.8,0.3,0.8,0.8C186.1,160.6,185.8,161,185.4,161
		z"/>
	<path fill="#231F20" d="M188.3,163.3l-0.3-0.9c2.5-0.6,4.1-2.2,4.5-4.1l0,0c-0.7,0.6-1.5,1.1-2.5,1.1c-1.4,0-2.7-1-2.7-2.8
		c0-1.8,1.2-3.1,3.1-3.1c2,0,3.2,1.7,3.2,3.8C193.6,159.8,191.9,162.5,188.3,163.3z M190.3,154.3c-1.3,0-2.1,0.9-2.1,2.2
		c0,1.3,0.9,2,2,2c0.9,0,1.8-0.4,2.4-1c0-0.2,0-0.3,0-0.5C192.6,155.6,191.8,154.3,190.3,154.3z"/>
</g>
<g>
	<path fill="#231F20" d="M246.6,163l0.3,0.9c-2.5,0.6-4.1,2.2-4.5,4.1l0,0c0.7-0.6,1.5-1.1,2.5-1.1c1.4,0,2.7,1,2.7,2.8
		c0,1.8-1.2,3.1-3.1,3.1c-2.1,0-3.2-1.7-3.2-3.8C241.3,166.5,243,163.8,246.6,163z M244.6,172c1.3,0,2.1-0.9,2.1-2.2
		c0-1.3-0.9-2-2-2c-0.9,0-1.8,0.4-2.4,1c0,0.2,0,0.3,0,0.5C242.3,170.7,243.2,172,244.6,172z"/>
	<path fill="#231F20" d="M249.5,172.8c-0.4,0-0.8-0.4-0.8-0.8s0.3-0.8,0.8-0.8s0.8,0.3,0.8,0.8S250,172.8,249.5,172.8z"/>
	<path fill="#231F20" d="M251.1,166.4l0-0.9h6v0.8l-4.3,9.2h-1l4.2-9H251.1z"/>
</g>
<g>
	<path fill="#231F20" d="M309.7,163l0.3,0.9c-2.5,0.6-4.1,2.2-4.5,4.1l0,0c0.7-0.6,1.5-1.1,2.5-1.1c1.4,0,2.7,1,2.7,2.8
		c0,1.8-1.2,3.1-3.1,3.1c-2.1,0-3.2-1.7-3.2-3.8C304.5,166.5,306.1,163.8,309.7,163z M307.7,172c1.3,0,2.1-0.9,2.1-2.2
		c0-1.3-0.9-2-2-2c-0.9,0-1.8,0.4-2.4,1c0,0.2,0,0.3,0,0.5C305.4,170.7,306.3,172,307.7,172z"/>
	<path fill="#231F20" d="M312.7,172.8c-0.4,0-0.8-0.4-0.8-0.8c0-0.4,0.3-0.8,0.8-0.8s0.8,0.3,0.8,0.8
		C313.4,172.4,313.1,172.8,312.7,172.8z"/>
	<path fill="#231F20" d="M316.8,169.3c1.9,0,3.1,1.2,3.1,2.9c0,1.9-1.5,3.2-3.3,3.2c-0.9,0-1.8-0.3-2.4-0.6l0.2-0.9
		c0.6,0.3,1.4,0.6,2.3,0.6c1.3,0,2.3-0.9,2.3-2.3c0-1.1-0.9-2.1-2.3-2.1c-0.9,0-1.3,0.1-1.8,0.3l-0.3-0.3l0.6-4.7h4.5l0,0.9h-3.8
		l-0.4,3.1C315.9,169.4,316.2,169.3,316.8,169.3z"/>
</g>
<g>
	<path fill="#231F20" d="M371.9,163l0.3,0.9c-2.5,0.6-4.1,2.2-4.5,4.1l0,0c0.7-0.6,1.5-1.1,2.5-1.1c1.4,0,2.7,1,2.7,2.8
		c0,1.8-1.2,3.1-3.1,3.1c-2.1,0-3.2-1.7-3.2-3.8C366.7,166.5,368.3,163.8,371.9,163z M369.9,172c1.3,0,2.1-0.9,2.1-2.2
		c0-1.3-0.9-2-2-2c-0.9,0-1.8,0.4-2.4,1c0,0.2,0,0.3,0,0.5C367.6,170.7,368.5,172,369.9,172z"/>
	<path fill="#231F20" d="M374.9,172.8c-0.4,0-0.8-0.4-0.8-0.8c0-0.4,0.3-0.8,0.8-0.8s0.8,0.3,0.8,0.8
		C375.6,172.4,375.3,172.8,374.9,172.8z"/>
	<path fill="#231F20" d="M382.3,172.4v3h-0.9v-3h-4.6l-0.1-0.6l4.8-6.5h0.8v6.3h1.4l0,0.9H382.3z M381.4,166.8l-3.5,4.8h3.5V166.8z"
		/>
</g>
<g>
	<path fill="#231F20" d="M436,188.9c0,1.8-1.5,2.9-3.3,2.9c-0.9,0-1.8-0.2-2.4-0.6l0.2-0.9c0.5,0.3,1.3,0.6,2.2,0.6
		c1.3,0,2.3-0.7,2.3-2c0-1.1-0.9-1.8-2.1-1.8c-0.4,0-0.9,0-1.4,0.1v-0.8c1.8-0.4,3.1-1.2,3.1-2.4c0-1-0.7-1.6-1.8-1.6
		c-0.8,0-1.6,0.4-2.2,0.9l-0.3-0.8c0.7-0.5,1.6-1,2.7-1c1.7,0,2.7,1,2.7,2.3c0,1.2-1,2.1-2.1,2.5C435.1,186.7,436,187.7,436,188.9z"
		/>
	<path fill="#231F20" d="M438.1,189.3c-0.4,0-0.8-0.4-0.8-0.8c0-0.4,0.3-0.8,0.8-0.8s0.8,0.3,0.8,0.8
		C438.8,188.9,438.5,189.3,438.1,189.3z"/>
	<path fill="#231F20" d="M439.6,182.8l0-0.9h6v0.8l-4.3,9.2h-1l4.2-9H439.6z"/>
</g>
<g>
	<path fill="#231F20" d="M499.1,188.9c0,1.8-1.5,2.9-3.3,2.9c-0.9,0-1.8-0.2-2.4-0.6l0.2-0.9c0.5,0.3,1.3,0.6,2.2,0.6
		c1.3,0,2.3-0.7,2.3-2c0-1.1-0.9-1.8-2.1-1.8c-0.4,0-0.9,0-1.4,0.1v-0.8c1.8-0.4,3.1-1.2,3.1-2.4c0-1-0.7-1.6-1.8-1.6
		c-0.8,0-1.6,0.4-2.2,0.9l-0.3-0.8c0.7-0.5,1.6-1,2.7-1c1.7,0,2.7,1,2.7,2.3c0,1.2-1,2.1-2.1,2.5
		C498.2,186.7,499.1,187.7,499.1,188.9z"/>
	<path fill="#231F20" d="M501.2,189.3c-0.4,0-0.8-0.4-0.8-0.8c0-0.4,0.3-0.8,0.8-0.8s0.8,0.3,0.8,0.8
		C502,188.9,501.6,189.3,501.2,189.3z"/>
	<path fill="#231F20" d="M505.3,185.8c1.9,0,3.1,1.2,3.1,2.9c0,1.9-1.5,3.2-3.3,3.2c-0.9,0-1.8-0.3-2.4-0.6l0.2-0.9
		c0.6,0.3,1.4,0.6,2.3,0.6c1.3,0,2.3-0.9,2.3-2.3c0-1.1-0.9-2.1-2.3-2.1c-0.9,0-1.3,0.1-1.8,0.3l-0.3-0.3l0.6-4.7h4.5l0,0.9h-3.8
		l-0.4,3.1C504.4,185.8,504.7,185.8,505.3,185.8z"/>
</g>
<g>
	<path fill="#373E4D" d="M38.4,231h4.4v0.7h-3.6v2.8h3v0.7h-3v3.3h-0.8V231z"/>
	<path fill="#373E4D" d="M46.9,237.9c-0.4,0.5-1,0.8-1.6,0.8c-1,0-1.7-0.6-1.7-1.5c0-1,0.8-1.8,3.3-2c0,0,0-0.3,0-0.3
		c0-0.9-0.4-1.3-1.3-1.3c-0.6,0-1.3,0.3-1.8,0.7l-0.2-0.7c0.5-0.3,1.3-0.7,2-0.7c1.3,0,2,0.6,2,2c0,0,0,2.6,0,2.6
		c0,0.4,0.1,0.6,0.6,0.6l0,0.6C47.4,238.7,47,238.4,46.9,237.9L46.9,237.9z M46.9,235.7c-1.9,0.2-2.6,0.6-2.6,1.4c0,0.6,0.5,1,1.1,1
		c0.6,0,1.1-0.3,1.4-0.7V235.7z"/>
	<path fill="#373E4D" d="M51.6,238.7c-1.7,0-2.7-1.2-2.7-2.9c0-1.7,1.1-2.9,2.7-2.9c0.7,0,1.2,0.2,1.7,0.5l-0.2,0.7
		c-0.4-0.3-0.9-0.4-1.5-0.4c-1.2,0-1.9,0.9-1.9,2.2c0,1.3,0.8,2.2,1.9,2.2c0.6,0,1.1-0.2,1.5-0.5l0.2,0.7
		C52.8,238.5,52.2,238.7,51.6,238.7z"/>
	<path fill="#373E4D" d="M55,235.9c0,1.2,0.8,2.1,1.9,2.1c0.6,0,1.2-0.2,1.6-0.5l0.1,0.7c-0.5,0.3-1.1,0.5-1.8,0.5
		c-1.6,0-2.7-1.2-2.7-2.9c0-1.7,1.1-3,2.6-3c1.2,0,2,0.8,2,2c0,0.3,0,0.6-0.1,0.9L55,235.9L55,235.9z M58.1,235.2c0-0.1,0-0.2,0-0.2
		c0-0.8-0.5-1.4-1.3-1.4c-1,0-1.6,0.8-1.7,1.7L58.1,235.2z"/>
	<path fill="#373E4D" d="M62.3,238.7c-0.4,0-1-0.1-1.3-0.3l-0.7,0.3v-8.3l0.7-0.2c0,0,0,3.3,0,3.3c0.4-0.3,0.9-0.7,1.7-0.7
		c1.5,0,2.4,1.2,2.4,2.8C65.1,237.4,63.9,238.7,62.3,238.7z M62.5,233.6c-0.6,0-1.1,0.3-1.5,0.6c0,0,0,3.4,0,3.4
		c0.3,0.3,0.9,0.4,1.4,0.4c1.2,0,1.9-0.9,1.9-2.3C64.3,234.5,63.6,233.6,62.5,233.6z"/>
	<path fill="#373E4D" d="M68.7,238.7c-1.5,0-2.7-1.1-2.7-2.9c0-1.8,1.2-2.9,2.7-2.9s2.6,1.1,2.6,2.9
		C71.4,237.5,70.2,238.7,68.7,238.7z M68.7,233.5c-1.2,0-1.9,0.9-1.9,2.2c0,1.3,0.8,2.2,1.9,2.2c1.2,0,1.9-0.9,1.9-2.2
		C70.7,234.4,69.9,233.5,68.7,233.5z"/>
	<path fill="#373E4D" d="M75.1,238.7c-1.5,0-2.7-1.1-2.7-2.9c0-1.8,1.2-2.9,2.7-2.9s2.6,1.1,2.6,2.9
		C77.8,237.5,76.6,238.7,75.1,238.7z M75.1,233.5c-1.2,0-1.9,0.9-1.9,2.2c0,1.3,0.8,2.2,1.9,2.2c1.2,0,1.9-0.9,1.9-2.2
		C77,234.4,76.2,233.5,75.1,233.5z"/>
	<path fill="#373E4D" d="M79.9,235.8v2.7h-0.7v-8.1l0.7-0.2v5.3h0l2.5-2.5h0.9l-2.6,2.6l2.7,2.9h-0.9L79.9,235.8L79.9,235.8z"/>
	<path fill="#373E4D" d="M105.1,235.5v3h-0.8v-3l-2.6-4.5h0.9l2.2,3.7l2.1-3.7h0.9L105.1,235.5z"/>
	<path fill="#373E4D" d="M110.2,238.7c-1.5,0-2.7-1.1-2.7-2.9c0-1.8,1.2-2.9,2.7-2.9s2.6,1.1,2.6,2.9
		C112.9,237.5,111.7,238.7,110.2,238.7z M110.2,233.5c-1.2,0-1.9,0.9-1.9,2.2c0,1.3,0.8,2.2,1.9,2.2c1.2,0,1.9-0.9,1.9-2.2
		C112.2,234.4,111.4,233.5,110.2,233.5z"/>
	<path fill="#373E4D" d="M115,233v3.5c0,1,0.4,1.4,1.2,1.4c0.6,0,1.2-0.3,1.7-0.8V233h0.7v5.5l-0.7,0.2c0,0,0-0.9,0-0.9
		c-0.6,0.6-1.3,0.9-1.9,0.9c-1.1,0-1.7-0.7-1.7-1.9V233H115z"/>
	<path fill="#373E4D" d="M123.1,231.7v6.8h-0.8v-6.8h-2.6V231h6v0.7H123.1z"/>
	<path fill="#373E4D" d="M126.5,233v3.5c0,1,0.4,1.4,1.2,1.4c0.6,0,1.2-0.3,1.7-0.8V233h0.7v5.5l-0.7,0.2c0,0,0-0.9,0-0.9
		c-0.6,0.6-1.3,0.9-1.9,0.9c-1.1,0-1.7-0.7-1.7-1.9V233H126.5z"/>
	<path fill="#373E4D" d="M133.9,238.7c-0.4,0-1-0.1-1.3-0.3l-0.7,0.3v-8.3l0.7-0.2c0,0,0,3.3,0,3.3c0.4-0.3,0.9-0.7,1.7-0.7
		c1.5,0,2.4,1.2,2.4,2.8C136.6,237.4,135.5,238.7,133.9,238.7z M134.1,233.6c-0.6,0-1.1,0.3-1.5,0.6c0,0,0,3.4,0,3.4
		c0.3,0.3,0.9,0.4,1.4,0.4c1.2,0,1.9-0.9,1.9-2.3C135.9,234.5,135.2,233.6,134.1,233.6z"/>
	<path fill="#373E4D" d="M138.4,235.9c0,1.2,0.8,2.1,1.9,2.1c0.6,0,1.2-0.2,1.6-0.5l0.1,0.7c-0.5,0.3-1.1,0.5-1.8,0.5
		c-1.6,0-2.7-1.2-2.7-2.9c0-1.7,1.1-3,2.6-3c1.2,0,2,0.8,2,2c0,0.3,0,0.6-0.1,0.9L138.4,235.9L138.4,235.9z M141.5,235.2
		c0-0.1,0-0.2,0-0.2c0-0.8-0.5-1.4-1.3-1.4c-1,0-1.6,0.8-1.7,1.7L141.5,235.2z"/>
	<path fill="#373E4D" d="M174,235.5v3h-0.8v-3l-2.6-4.5h0.9l2.2,3.7l2.1-3.7h0.9L174,235.5z"/>
	<path fill="#373E4D" d="M179.8,237.9c-0.4,0.5-1,0.8-1.6,0.8c-1,0-1.7-0.6-1.7-1.5c0-1,0.8-1.8,3.3-2c0,0,0-0.3,0-0.3
		c0-0.9-0.4-1.3-1.3-1.3c-0.6,0-1.3,0.3-1.8,0.7l-0.2-0.7c0.5-0.3,1.3-0.7,2-0.7c1.3,0,2,0.6,2,2c0,0,0,2.6,0,2.6
		c0,0.4,0.1,0.6,0.6,0.6l0,0.6C180.3,238.7,179.9,238.4,179.8,237.9L179.8,237.9z M179.8,235.7c-1.9,0.2-2.6,0.6-2.6,1.4
		c0,0.6,0.5,1,1.1,1c0.6,0,1.1-0.3,1.4-0.7V235.7z"/>
	<path fill="#373E4D" d="M185.8,238.5V235c0-1-0.4-1.4-1.2-1.4c-0.6,0-1.2,0.3-1.7,0.8v4.2h-0.7v-8.1l0.7-0.2c0,0,0,3.4,0,3.5
		c0.6-0.6,1.3-0.9,1.9-0.9c1.1,0,1.7,0.7,1.7,1.9v3.8H185.8z"/>
	<path fill="#373E4D" d="M190.6,238.7c-1.5,0-2.7-1.1-2.7-2.9c0-1.8,1.2-2.9,2.7-2.9s2.6,1.1,2.6,2.9
		C193.3,237.5,192.1,238.7,190.6,238.7z M190.6,233.5c-1.2,0-1.9,0.9-1.9,2.2c0,1.3,0.8,2.2,1.9,2.2c1.2,0,1.9-0.9,1.9-2.2
		C192.5,234.4,191.8,233.5,190.6,233.5z"/>
	<path fill="#373E4D" d="M196.9,238.7c-1.5,0-2.7-1.1-2.7-2.9c0-1.8,1.2-2.9,2.7-2.9s2.6,1.1,2.6,2.9
		C199.6,237.5,198.5,238.7,196.9,238.7z M197,233.5c-1.2,0-1.9,0.9-1.9,2.2c0,1.3,0.8,2.2,1.9,2.2c1.2,0,1.9-0.9,1.9-2.2
		C198.9,234.4,198.1,233.5,197,233.5z"/>
	<path fill="#373E4D" d="M201.7,238.7c-0.4,0-0.6-0.3-0.6-0.6s0.3-0.6,0.6-0.6c0.3,0,0.6,0.3,0.6,0.6S202.1,238.7,201.7,238.7z
		 M201.3,230.7h0.9l-0.2,5.6h-0.4L201.3,230.7z"/>
	<path fill="#373E4D" d="M236.7,238.7c-2.2,0-3.6-1.5-3.6-3.9c0-2.4,1.5-3.9,3.6-3.9c0.9,0,1.8,0.3,2.4,0.6l-0.3,0.7
		c-0.6-0.4-1.4-0.6-2.1-0.6c-1.6,0-2.8,1.2-2.8,3.2c0,2,1.1,3.2,2.9,3.2c0.7,0,1.3-0.2,1.8-0.5v-2h-2.2v-0.7h2.9v3.1
		C238.5,238.4,237.5,238.7,236.7,238.7z"/>
	<path fill="#373E4D" d="M243.2,238.7c-1.5,0-2.7-1.1-2.7-2.9c0-1.8,1.2-2.9,2.7-2.9s2.6,1.1,2.6,2.9
		C245.9,237.5,244.7,238.7,243.2,238.7z M243.2,233.5c-1.2,0-1.9,0.9-1.9,2.2c0,1.3,0.8,2.2,1.9,2.2c1.2,0,1.9-0.9,1.9-2.2
		C245.1,234.4,244.3,233.5,243.2,233.5z"/>
	<path fill="#373E4D" d="M249.5,238.7c-1.5,0-2.7-1.1-2.7-2.9c0-1.8,1.2-2.9,2.7-2.9s2.6,1.1,2.6,2.9
		C252.2,237.5,251.1,238.7,249.5,238.7z M249.6,233.5c-1.2,0-1.9,0.9-1.9,2.2c0,1.3,0.8,2.2,1.9,2.2c1.2,0,1.9-0.9,1.9-2.2
		C251.5,234.4,250.7,233.5,249.6,233.5z"/>
	<path fill="#373E4D" d="M253.3,237.7c0-0.5,0.4-0.9,0.9-1c-0.5-0.3-0.9-0.9-0.9-1.7c0-1.2,0.9-2.1,2.2-2.1c0.6,0,1,0.2,1.3,0.3
		l1.5-0.1l0,0.7l-1.2-0.1c0.3,0.3,0.4,0.8,0.4,1.2c0,1.2-0.9,2-2.1,2c-0.3,0-0.5-0.1-0.8-0.2c-0.3,0.1-0.6,0.3-0.6,0.7
		c0,0.3,0.3,0.6,1.2,0.6c0,0,0.8,0,0.7,0c1.6,0,2.3,0.5,2.3,1.4c0,1.2-1.4,2-2.9,2c-1.5,0-2.5-0.6-2.5-1.6c0-0.6,0.5-1.2,1.2-1.4
		C253.6,238.4,253.3,238,253.3,237.7z M253.6,239.8c0,0.6,0.7,1.1,1.9,1.1c1.1,0,2.1-0.6,2.1-1.3c0-0.6-0.6-0.9-1.7-0.9
		c-0.4,0-0.8,0-1.2,0C254,238.9,253.6,239.3,253.6,239.8z M255.4,236.3c0.8,0,1.4-0.6,1.4-1.4c0-0.8-0.5-1.4-1.4-1.4
		c-0.9,0-1.4,0.6-1.4,1.5C254,235.7,254.6,236.3,255.4,236.3z"/>
	<path fill="#373E4D" d="M259.2,238.5v-8.1l0.7-0.2v8.2H259.2z"/>
	<path fill="#373E4D" d="M262.1,235.9c0,1.2,0.8,2.1,1.9,2.1c0.6,0,1.2-0.2,1.6-0.5l0.1,0.7c-0.5,0.3-1.1,0.5-1.8,0.5
		c-1.6,0-2.7-1.2-2.7-2.9c0-1.7,1.1-3,2.6-3c1.2,0,2,0.8,2,2c0,0.3,0,0.6-0.1,0.9L262.1,235.9L262.1,235.9z M265.2,235.2
		c0-0.1,0-0.2,0-0.2c0-0.8-0.5-1.4-1.3-1.4c-1,0-1.6,0.8-1.7,1.7L265.2,235.2z"/>
	<path fill="#373E4D" d="M301.1,238.5V231h4.5v0.7h-3.8v2.7h3.1v0.7h-3.1v2.7h3.8v0.7H301.1z"/>
	<path fill="#373E4D" d="M310.9,236.6c0-0.9-0.7-1.2-1.9-1.6c-1.1-0.3-2.2-0.8-2.2-2.1c0-1.2,1-2,2.4-2c0.9,0,1.6,0.2,2.3,0.6
		l-0.3,0.7c-0.6-0.4-1.3-0.6-2-0.6c-1.1,0-1.7,0.6-1.7,1.3c0,0.8,0.7,1.1,1.9,1.5c1.1,0.3,2.2,0.8,2.2,2.2c0,1.2-1,2.2-2.5,2.2
		c-0.9,0-1.7-0.3-2.4-0.7l0.3-0.7c0.6,0.4,1.3,0.7,2.2,0.7C310.2,238,310.9,237.4,310.9,236.6z"/>
	<path fill="#373E4D" d="M314.9,235.9l-1,0v2.6h-0.8V231c0,0,1.8,0,1.9,0c2,0,2.9,1,2.9,2.3C317.9,235,316.7,235.8,314.9,235.9z
		 M315,231.7c-0.1,0-1.1,0-1.1,0v3.4l1.1,0c1.4,0,2.2-0.6,2.2-1.8C317.1,232.3,316.4,231.7,315,231.7z"/>
	<path fill="#373E4D" d="M324.4,231h0.7v7.6h-0.8l-4.3-6.5v6.4h-0.7V231h0.9l4.3,6.4V231z"/>
	<path fill="#373E4D" d="M362.6,231.7v6.8h-0.8v-6.8h-2.6V231h6v0.7H362.6z"/>
	<path fill="#373E4D" d="M366.3,238.5l-1.7-5.5h0.8l1.3,4.4l1.4-4.4h0.7l1.5,4.4l1.1-4.4h0.8l-1.6,5.5h-0.7l-1.5-4.4l-1.5,4.4H366.3
		z"/>
	<path fill="#373E4D" d="M373.6,231.8c-0.3,0-0.5-0.3-0.5-0.6c0-0.3,0.2-0.5,0.5-0.5s0.5,0.3,0.5,0.5
		C374.1,231.5,373.9,231.8,373.6,231.8z M373.2,238.5V233l0.7-0.2v5.6H373.2z"/>
	<path fill="#373E4D" d="M377.2,238.7c-1,0-1.5-0.6-1.5-1.7l0.1-3.3l-0.8,0l0-0.5l0.8-0.2l0-1.2h0.7l0,1.3h1.8l0,0.7h-1.8l-0.1,3.3
		c0,0.7,0.2,1,0.8,1c0.4,0,0.7-0.1,1.1-0.3l0.1,0.6C378.1,238.6,377.6,238.7,377.2,238.7z"/>
	<path fill="#373E4D" d="M381.2,238.7c-1,0-1.5-0.6-1.5-1.7l0.1-3.3l-0.8,0l0-0.5l0.8-0.2l0-1.2h0.7l0,1.3h1.8l0,0.7h-1.8l-0.1,3.3
		c0,0.7,0.2,1,0.8,1c0.4,0,0.7-0.1,1.1-0.3l0.1,0.6C382,238.6,381.6,238.7,381.2,238.7z"/>
	<path fill="#373E4D" d="M383.9,235.9c0,1.2,0.8,2.1,1.9,2.1c0.6,0,1.2-0.2,1.6-0.5l0.1,0.7c-0.5,0.3-1.1,0.5-1.8,0.5
		c-1.6,0-2.7-1.2-2.7-2.9c0-1.7,1.1-3,2.6-3c1.2,0,2,0.8,2,2c0,0.3,0,0.6-0.1,0.9L383.9,235.9L383.9,235.9z M387,235.2
		c0-0.1,0-0.2,0-0.2c0-0.8-0.5-1.4-1.3-1.4c-1,0-1.6,0.8-1.7,1.7L387,235.2z"/>
	<path fill="#373E4D" d="M389.9,238.5h-0.7V233l0.7-0.2v1.2c0.4-0.7,0.9-1.2,1.6-1.2c0.4,0,0.7,0.1,1,0.3l-0.2,0.7
		c-0.2-0.1-0.5-0.2-0.8-0.2c-0.6,0-1.1,0.4-1.5,1.4V238.5z"/>
	<path fill="#373E4D" d="M422.5,235.9l-1,0v2.6h-0.8V231c0,0,1.8,0,1.9,0c2,0,2.9,1,2.9,2.3C425.6,235,424.4,235.8,422.5,235.9z
		 M422.6,231.7c-0.1,0-1.1,0-1.1,0v3.4l1.1,0c1.4,0,2.2-0.6,2.2-1.8C424.8,232.3,424,231.7,422.6,231.7z"/>
	<path fill="#373E4D" d="M427.3,231.8c-0.3,0-0.5-0.3-0.5-0.6c0-0.3,0.2-0.5,0.5-0.5s0.5,0.3,0.5,0.5
		C427.8,231.5,427.6,231.8,427.3,231.8z M426.9,238.5V233l0.7-0.2v5.6H426.9z"/>
	<path fill="#373E4D" d="M433,238.5V235c0-1-0.4-1.4-1.2-1.4c-0.6,0-1.2,0.3-1.7,0.8v4.2h-0.7V233l0.7-0.2v0.9
		c0.6-0.6,1.3-0.9,1.9-0.9c1.1,0,1.8,0.7,1.8,1.9v3.8H433z"/>
	<path fill="#373E4D" d="M437,238.7c-1,0-1.5-0.6-1.5-1.7l0.1-3.3l-0.8,0l0-0.5l0.8-0.2l0-1.2h0.7l0,1.3h1.8l0,0.7h-1.8l-0.1,3.3
		c0,0.7,0.2,1,0.8,1c0.4,0,0.7-0.1,1.1-0.3l0.1,0.6C437.8,238.6,437.4,238.7,437,238.7z"/>
	<path fill="#373E4D" d="M440.1,238.5h-0.7V233l0.7-0.2v1.2c0.4-0.7,0.9-1.2,1.6-1.2c0.4,0,0.7,0.1,1,0.3l-0.2,0.7
		c-0.2-0.1-0.5-0.2-0.8-0.2c-0.6,0-1.1,0.4-1.5,1.4V238.5z"/>
	<path fill="#373E4D" d="M444,235.9c0,1.2,0.8,2.1,1.9,2.1c0.6,0,1.2-0.2,1.6-0.5l0.1,0.7c-0.5,0.3-1.1,0.5-1.8,0.5
		c-1.6,0-2.7-1.2-2.7-2.9c0-1.7,1.1-3,2.6-3c1.2,0,2,0.8,2,2c0,0.3,0,0.6-0.1,0.9L444,235.9L444,235.9z M447,235.2
		c0-0.1,0-0.2,0-0.2c0-0.8-0.5-1.4-1.3-1.4c-1,0-1.6,0.8-1.7,1.7L447,235.2z"/>
	<path fill="#373E4D" d="M450.5,238.7c-0.6,0-1.3-0.2-1.8-0.5l0.2-0.7c0.5,0.3,1.1,0.5,1.6,0.5c0.7,0,1.2-0.3,1.2-0.9
		c0-0.7-0.7-0.9-1.4-1.1c-0.8-0.2-1.6-0.6-1.6-1.6c0-1,0.8-1.6,1.9-1.6c0.6,0,1.2,0.2,1.7,0.4l-0.2,0.7c-0.5-0.3-1-0.4-1.5-0.4
		c-0.7,0-1.1,0.3-1.1,0.8c0,0.6,0.6,0.8,1.4,1c0.8,0.2,1.6,0.6,1.6,1.6C452.5,238,451.6,238.7,450.5,238.7z"/>
	<path fill="#373E4D" d="M455.4,238.7c-1,0-1.5-0.6-1.5-1.7l0.1-3.3l-0.8,0l0-0.5l0.8-0.2l0-1.2h0.7l0,1.3h1.8l0,0.7h-1.8l-0.1,3.3
		c0,0.7,0.2,1,0.8,1c0.4,0,0.7-0.1,1.1-0.3l0.1,0.6C456.2,238.6,455.7,238.7,455.4,238.7z"/>
	<path fill="#373E4D" d="M478.4,238.5V231h0.8v7.5H478.4z"/>
	<path fill="#373E4D" d="M484.7,238.5V235c0-1-0.4-1.4-1.2-1.4c-0.6,0-1.2,0.3-1.7,0.8v4.2H481V233l0.7-0.2v0.9
		c0.6-0.6,1.3-0.9,1.9-0.9c1.1,0,1.8,0.7,1.8,1.9v3.8H484.7z"/>
	<path fill="#373E4D" d="M488.4,238.7c-0.6,0-1.3-0.2-1.8-0.5l0.2-0.7c0.5,0.3,1.1,0.5,1.6,0.5c0.7,0,1.2-0.3,1.2-0.9
		c0-0.7-0.7-0.9-1.4-1.1c-0.8-0.2-1.6-0.6-1.6-1.6c0-1,0.8-1.6,1.9-1.6c0.6,0,1.2,0.2,1.7,0.4l-0.2,0.7c-0.5-0.3-1-0.4-1.5-0.4
		c-0.7,0-1.1,0.3-1.1,0.8c0,0.6,0.6,0.8,1.4,1c0.8,0.2,1.6,0.6,1.6,1.6C490.4,238,489.5,238.7,488.4,238.7z"/>
	<path fill="#373E4D" d="M493.2,238.7c-1,0-1.5-0.6-1.5-1.7l0.1-3.3l-0.8,0l0-0.5l0.8-0.2l0-1.2h0.7l0,1.3h1.8l0,0.7h-1.8l-0.1,3.3
		c0,0.7,0.2,1,0.8,1c0.4,0,0.7-0.1,1.1-0.3l0.1,0.6C494.1,238.6,493.6,238.7,493.2,238.7z"/>
	<path fill="#373E4D" d="M498.6,237.9c-0.4,0.5-1,0.8-1.6,0.8c-1,0-1.7-0.6-1.7-1.5c0-1,0.8-1.8,3.3-2c0,0,0-0.3,0-0.3
		c0-0.9-0.4-1.3-1.3-1.3c-0.6,0-1.3,0.3-1.8,0.7l-0.2-0.7c0.5-0.3,1.3-0.7,2-0.7c1.3,0,2,0.6,2,2c0,0,0,2.6,0,2.6
		c0,0.4,0.1,0.6,0.6,0.6l0,0.6C499.1,238.7,498.7,238.4,498.6,237.9L498.6,237.9z M498.5,235.7c-1.9,0.2-2.6,0.6-2.6,1.4
		c0,0.6,0.5,1,1.1,1c0.6,0,1.1-0.3,1.4-0.7V235.7z"/>
	<path fill="#373E4D" d="M500.6,237.7c0-0.5,0.4-0.9,0.9-1c-0.5-0.3-0.9-0.9-0.9-1.7c0-1.2,0.9-2.1,2.2-2.1c0.6,0,1,0.2,1.3,0.3
		l1.5-0.1l0,0.7l-1.2-0.1c0.3,0.3,0.4,0.8,0.4,1.2c0,1.2-0.9,2-2.1,2c-0.3,0-0.5-0.1-0.8-0.2c-0.3,0.1-0.6,0.3-0.6,0.7
		c0,0.3,0.3,0.6,1.2,0.6c0,0,0.8,0,0.7,0c1.6,0,2.3,0.5,2.3,1.4c0,1.2-1.4,2-2.9,2c-1.5,0-2.5-0.6-2.5-1.6c0-0.6,0.5-1.2,1.2-1.4
		C500.9,238.4,500.6,238,500.6,237.7z M500.9,239.8c0,0.6,0.7,1.1,1.9,1.1c1.1,0,2.1-0.6,2.1-1.3c0-0.6-0.6-0.9-1.7-0.9
		c-0.4,0-0.8,0-1.2,0C501.4,238.9,500.9,239.3,500.9,239.8z M502.8,236.3c0.8,0,1.4-0.6,1.4-1.4c0-0.8-0.5-1.4-1.4-1.4
		c-0.9,0-1.4,0.6-1.4,1.5C501.4,235.7,501.9,236.3,502.8,236.3z"/>
	<path fill="#373E4D" d="M507.3,238.5h-0.7V233l0.7-0.2v1.2c0.4-0.7,0.9-1.2,1.6-1.2c0.4,0,0.7,0.1,1,0.3l-0.2,0.7
		c-0.2-0.1-0.5-0.2-0.8-0.2c-0.6,0-1.1,0.4-1.5,1.4V238.5z"/>
	<path fill="#373E4D" d="M513.7,237.9c-0.4,0.5-1,0.8-1.6,0.8c-1,0-1.7-0.6-1.7-1.5c0-1,0.8-1.8,3.3-2c0,0,0-0.3,0-0.3
		c0-0.9-0.4-1.3-1.3-1.3c-0.6,0-1.3,0.3-1.8,0.7l-0.2-0.7c0.5-0.3,1.3-0.7,2-0.7c1.3,0,2,0.6,2,2c0,0,0,2.6,0,2.6
		c0,0.4,0.1,0.6,0.6,0.6l0,0.6C514.2,238.7,513.8,238.4,513.7,237.9L513.7,237.9z M513.6,235.7c-1.9,0.2-2.6,0.6-2.6,1.4
		c0,0.6,0.5,1,1.1,1c0.6,0,1.1-0.3,1.4-0.7V235.7z"/>
	<path fill="#373E4D" d="M522.9,238.5V235c0-1-0.4-1.4-1.2-1.4c-0.6,0-1.1,0.3-1.5,0.7c0,0.1,0,0.4,0,0.5v3.7h-0.7V235
		c0-1-0.4-1.4-1.2-1.4c-0.6,0-1.1,0.3-1.5,0.6v4.3H516V233l0.7-0.2c0,0,0,0.7,0,0.8c0.6-0.5,1.2-0.8,1.7-0.8c0.7,0,1.2,0.3,1.5,0.9
		c0.6-0.6,1.3-0.9,1.9-0.9c1,0,1.7,0.7,1.7,1.9v3.8H522.9z"/>
</g>
<g>
	<path fill="#373E4D" d="M8.9,198.7v0.8l-2.3,0.9v3.7l2.3,0.9v0.8l-8.1-3.1v-1L8.9,198.7z M1.6,202.2l4.2,1.6v-3.1L1.6,202.2z"/>
	<path fill="#373E4D" d="M8.9,195.4v0.7L3,198.5v-0.9l4.9-1.9L3,194v-0.8L8.9,195.4z"/>
	<path fill="#373E4D" d="M6,191.8c1.3,0,2.3-0.8,2.3-2.1c0-0.6-0.2-1.3-0.5-1.7l0.7-0.2c0.3,0.5,0.5,1.2,0.5,1.9
		c0,1.7-1.3,2.9-3.1,2.9c-1.9,0-3.2-1.2-3.2-2.8c0-1.3,0.9-2.2,2.2-2.2c0.3,0,0.7,0.1,0.9,0.1L6,191.8L6,191.8z M5.3,188.4
		c-0.1,0-0.2,0-0.3,0c-0.9,0-1.5,0.5-1.5,1.4c0,1.1,0.8,1.7,1.8,1.9L5.3,188.4z"/>
	<path fill="#373E4D" d="M8.9,185.3v0.8H3l-0.2-0.8h1.3c-0.8-0.4-1.3-1-1.3-1.7c0-0.4,0.1-0.8,0.3-1l0.8,0.2
		c-0.2,0.3-0.3,0.6-0.3,0.9c0,0.6,0.5,1.2,1.5,1.7H8.9z"/>
	<path fill="#373E4D" d="M8.2,178.4c0.5,0.4,0.9,1,0.9,1.7c0,1.1-0.7,1.9-1.6,1.9c-1.1,0-2-0.8-2.1-3.6c0,0-0.3,0-0.3,0
		c-0.9,0-1.4,0.4-1.4,1.4c0,0.6,0.3,1.4,0.7,1.9L3.5,182c-0.4-0.5-0.7-1.4-0.7-2.2c0-1.4,0.6-2.1,2.1-2.1c0,0,2.9,0,2.9,0
		c0.4,0,0.6-0.1,0.6-0.6l0.7,0.1C9.1,177.9,8.8,178.3,8.2,178.4L8.2,178.4z M5.9,178.5c0.2,2,0.7,2.8,1.5,2.8c0.6,0,1-0.5,1-1.2
		c0-0.6-0.4-1.2-0.8-1.5H5.9z"/>
	<path fill="#373E4D" d="M8,176.2c-0.5,0-0.9-0.4-1.1-1c-0.4,0.6-1,1-1.8,1c-1.3,0-2.2-0.9-2.2-2.3c0-0.6,0.2-1.1,0.3-1.4L3,170.8
		l0.8,0l-0.1,1.3c0.3-0.3,0.9-0.5,1.3-0.5c1.3,0,2.2,1,2.2,2.3c0,0.3-0.1,0.6-0.2,0.9c0.1,0.3,0.4,0.7,0.7,0.7
		c0.4,0,0.6-0.3,0.6-1.3c0,0,0-0.9,0-0.8c0-1.7,0.6-2.5,1.6-2.5c1.3,0,2.2,1.5,2.2,3.1c0,1.6-0.7,2.7-1.7,2.7
		c-0.7,0-1.3-0.5-1.5-1.3C8.7,175.9,8.4,176.2,8,176.2z M6.6,173.9c0-0.9-0.6-1.5-1.6-1.5c-0.9,0-1.5,0.5-1.5,1.5
		c0,0.9,0.7,1.5,1.6,1.5C5.9,175.4,6.6,174.9,6.6,173.9z M10.2,175.9c0.7,0,1.2-0.8,1.2-2c0-1.2-0.6-2.2-1.4-2.2
		c-0.7,0-0.9,0.6-0.9,1.8c0,0.4,0,0.9,0,1.2C9.3,175.4,9.7,175.9,10.2,175.9z"/>
	<path fill="#373E4D" d="M6,169.4c1.3,0,2.3-0.8,2.3-2.1c0-0.6-0.2-1.3-0.5-1.7l0.7-0.2c0.3,0.5,0.5,1.2,0.5,1.9
		c0,1.7-1.3,2.9-3.1,2.9c-1.9,0-3.2-1.2-3.2-2.8c0-1.3,0.9-2.2,2.2-2.2c0.3,0,0.7,0.1,0.9,0.1L6,169.4L6,169.4z M5.3,166
		c-0.1,0-0.2,0-0.3,0c-0.9,0-1.5,0.5-1.5,1.4c0,1.1,0.8,1.7,1.8,1.9L5.3,166z"/>
	<path fill="#373E4D" d="M0.2,156.8L0,156h8.9v0.8c0,0-0.5,0-0.6,0c0.4,0.4,0.7,1,0.7,1.7c0,1.6-1.3,2.7-3.1,2.7
		c-1.8,0-3.1-1.2-3.1-2.9c0-0.5,0.1-1,0.3-1.4H0.2z M3.6,158.3c0,1.3,1,2.1,2.4,2.1c1.4,0,2.4-0.8,2.4-2c0-0.6-0.3-1.2-0.7-1.6
		c0,0-3.7,0-3.7,0C3.7,157.1,3.6,157.7,3.6,158.3z"/>
	<path fill="#373E4D" d="M8.2,151c0.5,0.4,0.9,1,0.9,1.7c0,1.1-0.7,1.9-1.6,1.9c-1.1,0-2-0.8-2.1-3.6c0,0-0.3,0-0.3,0
		c-0.9,0-1.4,0.4-1.4,1.4c0,0.6,0.3,1.4,0.7,1.9l-0.8,0.2c-0.4-0.5-0.7-1.4-0.7-2.2c0-1.4,0.6-2.1,2.1-2.1c0,0,2.9,0,2.9,0
		c0.4,0,0.6-0.1,0.6-0.6l0.7,0.1C9.1,150.4,8.8,150.9,8.2,151L8.2,151z M5.9,151c0.2,2,0.7,2.8,1.5,2.8c0.6,0,1-0.5,1-1.2
		c0-0.6-0.4-1.2-0.8-1.5H5.9z"/>
	<path fill="#373E4D" d="M1.6,148c0,0.4-0.3,0.5-0.6,0.5c-0.3,0-0.6-0.2-0.6-0.5s0.3-0.5,0.6-0.5C1.3,147.5,1.6,147.7,1.6,148z
		 M8.9,148.4H3l-0.2-0.8h6.1V148.4z"/>
	<path fill="#373E4D" d="M8.9,145.7H0.2L0,144.9h8.9V145.7z"/>
	<path fill="#373E4D" d="M8.8,140.9l1.3,0.5c1.5,0.5,1.9,1.1,1.9,1.9c0,0.5-0.1,0.8-0.3,1.2l-0.7-0.2c0.2-0.3,0.3-0.6,0.3-0.9
		c0-0.5-0.2-0.8-1.4-1.2l-1-0.4L3,143.9v-0.9l4.9-1.9L3,139.4v-0.8L8.8,140.9z"/>
	<path fill="#373E4D" d="M8.9,127.2H5.1c-1,0-1.5,0.4-1.5,1.3c0,0.6,0.3,1.2,0.8,1.7c0.1,0,0.4,0,0.5,0h4v0.8H5.1
		c-1,0-1.5,0.4-1.5,1.3c0,0.6,0.3,1.2,0.7,1.6h4.7v0.8H3l-0.2-0.8c0,0,0.8,0,0.8,0c-0.6-0.6-0.8-1.3-0.8-1.9c0-0.7,0.3-1.3,1-1.6
		c-0.7-0.7-1-1.4-1-2.1c0-1.1,0.7-1.8,2-1.8h4.1V127.2z"/>
	<path fill="#373E4D" d="M1.6,124.2c0,0.4-0.3,0.5-0.6,0.5c-0.3,0-0.6-0.2-0.6-0.5s0.3-0.5,0.6-0.5C1.3,123.6,1.6,123.8,1.6,124.2z
		 M8.9,124.6H3l-0.2-0.8h6.1V124.6z"/>
	<path fill="#373E4D" d="M8.9,118H5.1c-1,0-1.5,0.4-1.5,1.3c0,0.6,0.3,1.3,0.8,1.8h4.5v0.8H3l-0.2-0.8h1c-0.6-0.6-1-1.4-1-2
		c0-1.2,0.7-1.9,2-1.9h4.1V118z"/>
	<path fill="#373E4D" d="M3,114.6h3.8c1,0,1.5-0.4,1.5-1.3c0-0.7-0.4-1.3-0.8-1.8H3v-0.8h5.9l0.2,0.8c0,0-0.9,0-1,0
		c0.6,0.6,1,1.4,1,2c0,1.2-0.7,1.9-2,1.9H3V114.6z"/>
	<path fill="#373E4D" d="M9.1,107.2c0,1.1-0.6,1.6-1.9,1.6l-3.5-0.1l-0.1,0.9l-0.5,0L3,108.6l-1.3,0v-0.8l1.4,0v-2l0.7,0v2l3.5,0.1
		c0.8,0,1.1-0.2,1.1-0.9c0-0.4-0.1-0.8-0.3-1.1l0.7-0.1C9,106.3,9.1,106.7,9.1,107.2z"/>
	<path fill="#373E4D" d="M6,104.2c1.3,0,2.3-0.8,2.3-2.1c0-0.6-0.2-1.3-0.5-1.7l0.7-0.2c0.3,0.5,0.5,1.2,0.5,1.9
		c0,1.7-1.3,2.9-3.1,2.9c-1.9,0-3.2-1.2-3.2-2.8c0-1.3,0.9-2.2,2.2-2.2c0.3,0,0.7,0.1,0.9,0.1L6,104.2L6,104.2z M5.3,100.8
		c-0.1,0-0.2,0-0.3,0c-0.9,0-1.5,0.5-1.5,1.4c0,1.1,0.8,1.7,1.8,1.9L5.3,100.8z"/>
	<path fill="#373E4D" d="M9.1,97.1c0,0.7-0.2,1.4-0.5,1.9l-0.7-0.2c0.3-0.5,0.5-1.1,0.5-1.7c0-0.7-0.3-1.3-1-1.3
		c-0.7,0-0.9,0.8-1.2,1.5c-0.2,0.8-0.6,1.7-1.7,1.7c-1.1,0-1.7-0.9-1.7-2c0-0.6,0.2-1.3,0.4-1.8L4,95.4c-0.3,0.5-0.4,1.1-0.4,1.6
		c0,0.7,0.3,1.2,0.9,1.2c0.7,0,0.9-0.7,1.1-1.5C5.8,95.9,6.2,95,7.3,95C8.4,95,9.1,95.9,9.1,97.1z"/>
	<path fill="#373E4D" d="M2.8,88c0-1.6,1.3-2.7,3.1-2.7c1.8,0,3.2,1.2,3.2,2.9c0,0.5-0.1,1.1-0.3,1.5h3.2v0.8h-9l-0.2-0.8
		c0,0,0.8,0,0.8,0C3.2,89.3,2.8,88.8,2.8,88z M7.9,89.8c0.3-0.4,0.5-0.9,0.5-1.5c0-1.3-1-2.1-2.4-2.1c-1.4,0-2.3,0.8-2.3,2
		c0,0.6,0.3,1.2,0.7,1.6C4.2,89.8,7.9,89.8,7.9,89.8z"/>
	<path fill="#373E4D" d="M6,83.5c1.3,0,2.3-0.8,2.3-2.1c0-0.6-0.2-1.3-0.5-1.7l0.7-0.2c0.3,0.5,0.5,1.2,0.5,1.9
		c0,1.7-1.3,2.9-3.1,2.9c-1.9,0-3.2-1.2-3.2-2.8c0-1.3,0.9-2.2,2.2-2.2c0.3,0,0.7,0.1,0.9,0.1L6,83.5L6,83.5z M5.3,80.1
		c-0.1,0-0.2,0-0.3,0c-0.9,0-1.5,0.5-1.5,1.4c0,1.1,0.8,1.7,1.8,1.9L5.3,80.1z"/>
	<path fill="#373E4D" d="M8.9,77v0.8H3L2.8,77h1.3c-0.8-0.4-1.3-1-1.3-1.7c0-0.4,0.1-0.8,0.3-1l0.8,0.2c-0.2,0.3-0.3,0.6-0.3,0.9
		c0,0.6,0.5,1.2,1.5,1.7H8.9z"/>
	<path fill="#373E4D" d="M3,69.5h3.8c1,0,1.5-0.4,1.5-1.3c0-0.7-0.4-1.3-0.8-1.8H3v-0.8h5.9l0.2,0.8c0,0-0.9,0-1,0
		c0.6,0.6,1,1.4,1,2c0,1.2-0.7,1.9-2,1.9H3V69.5z"/>
	<path fill="#373E4D" d="M9.1,62.3c0,0.7-0.2,1.4-0.5,1.9L7.8,64c0.3-0.5,0.5-1.1,0.5-1.7c0-0.7-0.3-1.3-1-1.3
		c-0.7,0-0.9,0.8-1.2,1.5c-0.2,0.8-0.6,1.7-1.7,1.7c-1.1,0-1.7-0.9-1.7-2c0-0.6,0.2-1.3,0.4-1.8L4,60.5c-0.3,0.5-0.4,1.1-0.4,1.6
		c0,0.7,0.3,1.2,0.9,1.2c0.7,0,0.9-0.7,1.1-1.5c0.2-0.8,0.6-1.7,1.7-1.7C8.4,60.1,9.1,61.1,9.1,62.3z"/>
	<path fill="#373E4D" d="M6,58.3c1.3,0,2.3-0.8,2.3-2.1c0-0.6-0.2-1.3-0.5-1.7l0.7-0.2c0.3,0.5,0.5,1.2,0.5,1.9
		c0,1.7-1.3,2.9-3.1,2.9c-1.9,0-3.2-1.2-3.2-2.8c0-1.3,0.9-2.2,2.2-2.2c0.3,0,0.7,0.1,0.9,0.1L6,58.3L6,58.3z M5.3,54.9
		c-0.1,0-0.2,0-0.3,0c-0.9,0-1.5,0.5-1.5,1.4c0,1.1,0.8,1.7,1.8,1.9L5.3,54.9z"/>
	<path fill="#373E4D" d="M8.9,51.8v0.8H3l-0.2-0.8h1.3c-0.8-0.4-1.3-1-1.3-1.7c0-0.4,0.1-0.8,0.3-1l0.8,0.2
		c-0.2,0.3-0.3,0.6-0.3,0.9c0,0.6,0.5,1.2,1.5,1.7H8.9z"/>
</g>
<line fill="none" stroke="#ADB3BB" stroke-miterlimit="10" x1="16" y1="223.3" x2="543.4" y2="223.3"/>
<line fill="none" stroke="#ADB3BB" stroke-miterlimit="10" x1="91.4" y1="223.3" x2="91.4" y2="228.1"/>
<line fill="none" stroke="#ADB3BB" stroke-miterlimit="10" x1="28.4" y1="223.3" x2="28.4" y2="228.1"/>
<line fill="none" stroke="#ADB3BB" stroke-miterlimit="10" x1="154.3" y1="223.3" x2="154.3" y2="228.1"/>
<line fill="none" stroke="#ADB3BB" stroke-miterlimit="10" x1="217.3" y1="223.3" x2="217.3" y2="228.1"/>
<line fill="none" stroke="#ADB3BB" stroke-miterlimit="10" x1="280.3" y1="223.3" x2="280.3" y2="228.1"/>
<line fill="none" stroke="#ADB3BB" stroke-miterlimit="10" x1="343.2" y1="223.3" x2="343.2" y2="228.1"/>
<line fill="none" stroke="#ADB3BB" stroke-miterlimit="10" x1="406.2" y1="223.3" x2="406.2" y2="228.1"/>
<line fill="none" stroke="#ADB3BB" stroke-miterlimit="10" x1="469.2" y1="223.3" x2="469.2" y2="228.1"/>
<line fill="none" stroke="#ADB3BB" stroke-miterlimit="10" x1="532.1" y1="223.3" x2="532.1" y2="228.1"/>
</svg>
