<!-- Generator: Adobe Illustrator 18.1.0, SVG Export Plug-In  -->
<svg version="1.1"
	 xmlns="http://www.w3.org/2000/svg" xmlns:xlink="http://www.w3.org/1999/xlink" xmlns:a="http://ns.adobe.com/AdobeSVGViewerExtensions/3.0/"
	 x="0px" y="0px" width="101.4px" height="88.3px" viewBox="0 0 101.4 88.3" enable-background="new 0 0 101.4 88.3"
	 xml:space="preserve">
<defs>
</defs>
<g>
	<path fill="#FFFFFF" d="M22.8,0.9h5.4V2H24v2.8h3.5v1.1H24v3.7h-1.2V0.9z"/>
	<path fill="#FFFFFF" d="M32.9,8.9c-0.5,0.6-1.1,0.9-1.8,0.9c-1.2,0-2-0.8-2-1.8c0-1.1,0.8-2.2,3.8-2.3V5.5c0-1-0.4-1.5-1.4-1.5
		c-0.7,0-1.5,0.3-2.1,0.7l-0.2-1C29.7,3.4,30.6,3,31.6,3c1.7,0,2.5,0.7,2.5,2.5v2.7c0,0.5,0.1,0.6,0.6,0.6l-0.1,1
		C33.6,9.9,33.1,9.5,32.9,8.9L32.9,8.9z M32.9,6.4c-1.9,0.3-2.6,0.6-2.6,1.4c0,0.6,0.4,1,1.1,1c0.6,0,1.1-0.3,1.5-0.7V6.4z"/>
	<path fill="#FFFFFF" d="M38.7,9.8c-2,0-3.2-1.4-3.2-3.4c0-2,1.4-3.4,3.2-3.4c0.8,0,1.5,0.2,2.1,0.5l-0.3,1.1
		c-0.5-0.4-1.1-0.5-1.8-0.5c-1.3,0-2,0.9-2,2.3c0,1.5,0.8,2.4,2,2.4c0.7,0,1.3-0.2,1.9-0.5l0.2,1.1C40.2,9.7,39.5,9.8,38.7,9.8z"/>
	<path fill="#FFFFFF" d="M43,6.6c0,1.3,0.9,2.2,2.1,2.2c0.7,0,1.4-0.2,1.9-0.5l0.2,1.1c-0.6,0.4-1.3,0.5-2.2,0.5
		c-1.9,0-3.3-1.4-3.3-3.4C41.8,4.4,43.2,3,45,3c1.6,0,2.5,1,2.5,2.5c0,0.4-0.1,0.7-0.1,1C47.3,6.5,43,6.6,43,6.6L43,6.6z M46.3,5.7
		L46.3,5.7c0-1.1-0.4-1.7-1.5-1.7c-1.1,0-1.7,0.9-1.8,1.7L46.3,5.7z"/>
	<path fill="#FFFFFF" d="M51.5,9.8c-0.4,0-1-0.1-1.4-0.2L49,9.8V0.2L50.1,0c0,0,0,3.7,0,3.8c0.5-0.4,1-0.8,1.8-0.8
		c1.8,0,2.9,1.5,2.9,3.4C54.8,8.3,53.4,9.8,51.5,9.8z M51.7,4.1c-0.6,0-1.1,0.2-1.6,0.6c0-0.1,0,3.7,0,3.7c0.4,0.3,0.9,0.5,1.4,0.5
		c1.3,0,2-1.1,2-2.4C53.6,5,52.9,4.1,51.7,4.1z"/>
	<path fill="#FFFFFF" d="M59,9.8c-1.8,0-3.1-1.3-3.1-3.4c0-2.1,1.3-3.4,3.2-3.4c1.8,0,3.1,1.4,3.1,3.4C62.2,8.5,60.8,9.8,59,9.8z
		 M59,4c-1.3,0-2,1-2,2.4c0,1.4,0.7,2.4,2,2.4c1.3,0,2-1,2-2.4C61,5.1,60.3,4,59,4z"/>
	<path fill="#FFFFFF" d="M66.4,9.8c-1.8,0-3.1-1.3-3.1-3.4c0-2.1,1.3-3.4,3.2-3.4c1.8,0,3.1,1.4,3.1,3.4C69.6,8.5,68.2,9.8,66.4,9.8
		z M66.4,4c-1.3,0-2,1-2,2.4c0,1.4,0.7,2.4,2,2.4c1.3,0,2-1,2-2.4C68.4,5.1,67.7,4,66.4,4z"/>
	<path fill="#FFFFFF" d="M72.3,6.5v3.2h-1.1V0.2L72.3,0v6.2h0L75,3.2h1.5l-2.9,3l3,3.4H75L72.3,6.5L72.3,6.5z"/>
	<path fill="#FFFFFF" d="M3.8,23c-0.5,0.6-1.1,0.9-1.8,0.9c-1.2,0-2-0.8-2-1.8c0-1.1,0.8-2.2,3.8-2.3v-0.2c0-1-0.4-1.5-1.4-1.5
		c-0.7,0-1.5,0.3-2.1,0.7l-0.2-1C0.6,17.4,1.6,17,2.5,17C4.2,17,5,17.8,5,19.5v2.7c0,0.5,0.1,0.6,0.6,0.6l-0.1,1
		C4.5,23.9,4,23.5,3.8,23L3.8,23z M3.8,20.5c-1.9,0.3-2.6,0.6-2.6,1.4c0,0.6,0.4,1,1.1,1c0.6,0,1.1-0.3,1.5-0.7V20.5z"/>
	<path fill="#FFFFFF" d="M11,23.7v-4c0-1.1-0.4-1.5-1.3-1.5c-0.7,0-1.3,0.4-1.7,0.7v4.8H6.9v-6.5L8,17v1c0.6-0.6,1.3-1,2.1-1
		c1.3,0,2.1,0.8,2.1,2.2v4.4H11z"/>
	<path fill="#FFFFFF" d="M18.3,14.2l1.2-0.2v9.6h-1.2c0,0,0-0.5,0-0.6c-0.5,0.4-1,0.8-1.8,0.8c-1.8,0-2.9-1.5-2.9-3.4
		c0-1.9,1.3-3.4,3.3-3.4c0.5,0,1,0.1,1.4,0.2V14.2z M16.9,18.1c-1.3,0-2,1.1-2,2.4c0,1.4,0.7,2.4,1.9,2.4c0.6,0,1.1-0.2,1.6-0.6
		c0,0.1,0-3.7,0-3.7C18,18.2,17.5,18.1,16.9,18.1z"/>
	<path fill="#FFFFFF" d="M24.8,23.7v-8.8H26v8.8H24.8z"/>
	<path fill="#FFFFFF" d="M32.3,23.7v-4c0-1.1-0.4-1.5-1.3-1.5c-0.7,0-1.3,0.4-1.7,0.7v4.8h-1.1v-6.5l1.1-0.2v1c0.6-0.6,1.3-1,2.1-1
		c1.3,0,2.1,0.8,2.1,2.2v4.4H32.3z"/>
	<path fill="#FFFFFF" d="M37.1,23.9c-0.8,0-1.7-0.2-2.2-0.6l0.3-1.1c0.5,0.4,1.3,0.6,2,0.6c0.7,0,1.3-0.3,1.3-0.9
		c0-0.6-0.8-0.9-1.5-1.1C36,20.6,35,20.2,35,19c0-1.2,1-1.9,2.3-1.9c0.7,0,1.5,0.2,2.1,0.5l-0.3,1.1c-0.5-0.3-1.3-0.5-1.8-0.5
		c-0.7,0-1.1,0.3-1.1,0.8c0,0.6,0.7,0.8,1.5,1c0.9,0.3,1.9,0.7,1.9,1.9C39.5,23.1,38.5,23.9,37.1,23.9z"/>
	<path fill="#FFFFFF" d="M43,23.9c-1.2,0-1.9-0.6-1.9-2l0.1-3.6l-1.1-0.1l0-0.7l1.1-0.3l0-1.4h1.1l0,1.5h2l0,1h-2l-0.1,3.6
		c0,0.6,0.3,0.9,0.8,0.9c0.4,0,0.8-0.1,1.2-0.2c0,0,0.2,1,0.2,1C43.9,23.8,43.5,23.9,43,23.9z"/>
	<path fill="#FFFFFF" d="M49.1,23c-0.5,0.6-1.1,0.9-1.8,0.9c-1.2,0-2-0.8-2-1.8c0-1.1,0.8-2.2,3.8-2.3v-0.2c0-1-0.4-1.5-1.4-1.5
		c-0.7,0-1.5,0.3-2.1,0.7l-0.2-1c0.6-0.4,1.5-0.7,2.4-0.7c1.7,0,2.5,0.7,2.5,2.5v2.7c0,0.5,0.1,0.6,0.6,0.6l-0.1,1
		C49.8,23.9,49.3,23.5,49.1,23L49.1,23z M49.1,20.5c-1.9,0.3-2.6,0.6-2.6,1.4c0,0.6,0.4,1,1.1,1c0.6,0,1.1-0.3,1.5-0.7V20.5z"/>
	<path fill="#FFFFFF" d="M51.8,22.7c0-0.5,0.4-1,1.1-1.2c-0.7-0.4-1.1-1.1-1.1-2c0-1.3,0.9-2.4,2.6-2.4c0.7,0,1.2,0.2,1.7,0.4
		l1.7-0.2l0,1.1l-1.2-0.2c0.3,0.2,0.4,0.8,0.4,1.3c0,1.3-1.1,2.4-2.6,2.4c-0.3,0-0.5,0-0.9-0.2c-0.3,0.1-0.6,0.4-0.6,0.7
		c0,0.4,0.3,0.6,1.5,0.6c0,0,0.7,0,0.6,0c1.9,0,2.8,0.6,2.8,1.7c0,1.4-1.5,2.5-3.5,2.5c-1.7,0-3-0.7-3-1.9c0-0.7,0.5-1.3,1.4-1.5
		C52.1,23.5,51.8,23.1,51.8,22.7z M52.4,25c0,0.7,0.8,1.2,2,1.2c1.2,0,2.2-0.5,2.2-1.3c0-0.7-0.6-0.9-1.9-0.9c-0.4,0-0.9,0-1.2-0.1
		C52.8,24.2,52.4,24.5,52.4,25z M54.4,20.9c0.8,0,1.4-0.6,1.4-1.5c0-0.8-0.5-1.4-1.5-1.4c-0.8,0-1.4,0.6-1.4,1.5
		C52.9,20.3,53.5,20.9,54.4,20.9z"/>
	<path fill="#FFFFFF" d="M60,23.7h-1.1v-6.5L60,17v1.1c0.4-0.7,1-1.1,1.8-1.1c0.4,0,0.9,0.1,1.2,0.3l-0.3,1.1
		c-0.4-0.2-0.7-0.3-1-0.3c-0.6,0-1.2,0.4-1.7,1.3V23.7z"/>
	<path fill="#FFFFFF" d="M67.3,23c-0.5,0.6-1.1,0.9-1.8,0.9c-1.2,0-2-0.8-2-1.8c0-1.1,0.8-2.2,3.8-2.3v-0.2c0-1-0.4-1.5-1.4-1.5
		c-0.7,0-1.5,0.3-2.1,0.7l-0.2-1c0.6-0.4,1.5-0.7,2.4-0.7c1.7,0,2.5,0.7,2.5,2.5v2.7c0,0.5,0.1,0.6,0.6,0.6l-0.1,1
		C68,23.9,67.5,23.5,67.3,23L67.3,23z M67.3,20.5c-1.9,0.3-2.6,0.6-2.6,1.4c0,0.6,0.4,1,1.1,1c0.6,0,1.1-0.3,1.5-0.7V20.5z"/>
	<path fill="#FFFFFF" d="M78.4,23.7v-4c0-1.1-0.4-1.5-1.2-1.5c-0.7,0-1.3,0.4-1.6,0.7v0.4v4.4h-1.2v-4c0-1.1-0.4-1.5-1.2-1.5
		c-0.7,0-1.3,0.3-1.6,0.7v4.9h-1.1v-6.5l1.1-0.2c0,0,0,0.8,0,0.9c0.6-0.6,1.3-0.9,2.1-0.9c0.7,0,1.4,0.4,1.7,1.1
		c0.7-0.7,1.4-1.1,2.3-1.1c1.2,0,1.9,0.8,1.9,2.2v4.4H78.4z"/>
	<path fill="#FFFFFF" d="M87.9,23c-0.5,0.6-1.1,0.9-1.8,0.9c-1.2,0-2-0.8-2-1.8c0-1.1,0.8-2.2,3.8-2.3v-0.2c0-1-0.4-1.5-1.4-1.5
		c-0.7,0-1.5,0.3-2.1,0.7l-0.2-1c0.6-0.4,1.5-0.7,2.4-0.7c1.7,0,2.5,0.7,2.5,2.5v2.7c0,0.5,0.1,0.6,0.6,0.6l-0.1,1
		C88.6,23.9,88.1,23.5,87.9,23L87.9,23z M87.9,20.5c-1.9,0.3-2.6,0.6-2.6,1.4c0,0.6,0.4,1,1.1,1c0.6,0,1.1-0.3,1.5-0.7V20.5z"/>
	<path fill="#FFFFFF" d="M92.1,23.7H91v-6.5l1.1-0.2v1.1c0.4-0.7,1-1.1,1.8-1.1c0.4,0,0.9,0.1,1.2,0.3l-0.3,1.1
		c-0.4-0.2-0.7-0.3-1-0.3c-0.6,0-1.2,0.4-1.7,1.3V23.7z"/>
	<path fill="#FFFFFF" d="M96.9,20.6c0,1.3,0.9,2.2,2.1,2.2c0.7,0,1.4-0.2,1.9-0.5l0.2,1.1c-0.6,0.4-1.3,0.5-2.2,0.5
		c-1.9,0-3.3-1.4-3.3-3.4c0-2.1,1.4-3.5,3.2-3.5c1.6,0,2.5,1,2.5,2.5c0,0.4-0.1,0.7-0.1,1C101.2,20.6,96.9,20.6,96.9,20.6L96.9,20.6
		z M100.3,19.7L100.3,19.7c0-1.1-0.4-1.7-1.5-1.7c-1.1,0-1.7,0.9-1.8,1.7L100.3,19.7z"/>
	<path fill="#FFFFFF" d="M14.4,58v-3.8c7.6-5.6,14.4-9.8,14.4-14c0-2.5-1.9-4.3-5.1-4.3c-2.7,0-5.1,1.2-7.7,3.1l-1.6-3.8
		c2.5-2,5.7-3.5,9.7-3.5c5.5,0,9.3,3.1,9.3,7.9c0,5.9-5.3,9.1-12.4,14.2h13.5V58H14.4z"/>
	<path fill="#FFFFFF" d="M50,58.9c-7.7,0-13-5.5-13-13.5s5.3-13.5,13-13.5S63,37.3,63,45.3S57.6,58.9,50,58.9z M50,36
		c-5.1,0-8.6,3.9-8.6,9.3s3.5,9.3,8.6,9.3s8.6-3.9,8.6-9.3S55.1,36,50,36z"/>
	<path fill="#FFFFFF" d="M71.4,47.8c-3.3,0-5.4-2.5-5.4-5.3c0-2.9,2.1-5.4,5.4-5.4c3.3,0,5.4,2.5,5.4,5.4
		C76.8,45.3,74.7,47.8,71.4,47.8z M71.4,38.7c-2.3,0-3.6,1.7-3.6,3.7c0,1.9,1.4,3.7,3.6,3.7s3.6-1.7,3.6-3.7
		C75,40.4,73.7,38.7,71.4,38.7z M70.5,58.5h-2l16.1-21.2h2L70.5,58.5z M83.7,58.9c-3.3,0-5.4-2.5-5.4-5.4c0-2.9,2-5.3,5.4-5.3
		c3.3,0,5.4,2.5,5.4,5.3C89.1,56.4,87,58.9,83.7,58.9z M83.7,49.8c-2.3,0-3.6,1.7-3.6,3.7c0,2.1,1.4,3.7,3.6,3.7
		c2.3,0,3.6-1.7,3.6-3.7C87.3,51.5,86,49.8,83.7,49.8z"/>
	<path fill="#FFFFFF" d="M7,74.3c-1.8,0-3.1-1.3-3.1-3.4c0-2.1,1.3-3.4,3.2-3.4c1.8,0,3.1,1.4,3.1,3.4C10.2,72.9,8.8,74.3,7,74.3z
		 M7,68.5c-1.3,0-2,1-2,2.4c0,1.4,0.7,2.4,2,2.4c1.3,0,2-1,2-2.4C9,69.5,8.3,68.5,7,68.5z"/>
	<path fill="#FFFFFF" d="M15.1,65.7c-0.3-0.1-0.7-0.3-1-0.3c-0.6,0-1,0.4-1,1.4v0.9h2l0,1h-2v5.4H12v-5.4l-1.1-0.1l0.1-0.7l1.1-0.3
		l0-0.8c0-1.8,0.9-2.5,2.1-2.5c0.5,0,1,0.2,1.3,0.3C15.4,64.6,15.1,65.7,15.1,65.7z"/>
	<path fill="#FFFFFF" d="M22.7,73.4c-0.5,0.6-1.1,0.9-1.8,0.9c-1.2,0-2-0.8-2-1.8c0-1.1,0.8-2.2,3.8-2.3V70c0-1-0.4-1.5-1.4-1.5
		c-0.7,0-1.5,0.3-2.1,0.7l-0.2-1c0.6-0.4,1.5-0.7,2.4-0.7c1.7,0,2.5,0.7,2.5,2.5v2.7c0,0.5,0.1,0.6,0.6,0.6l-0.1,1
		C23.4,74.3,22.9,73.9,22.7,73.4L22.7,73.4z M22.7,70.9c-1.9,0.3-2.6,0.6-2.6,1.4c0,0.6,0.4,1,1.1,1c0.6,0,1.1-0.3,1.5-0.7V70.9z"/>
	<path fill="#FFFFFF" d="M25.7,74.1v-9.5l1.1-0.2v9.6H25.7z"/>
	<path fill="#FFFFFF" d="M28.9,74.1v-9.5l1.1-0.2v9.6H28.9z"/>
	<path fill="#FFFFFF" d="M37.1,74.3c-1.2,0-1.9-0.6-1.9-2l0.1-3.6l-1.1-0.1l0-0.7l1.1-0.3l0-1.4h1.1l0,1.5h2l0,1h-2l-0.1,3.6
		c0,0.6,0.3,0.9,0.8,0.9c0.4,0,0.8-0.1,1.2-0.2c0,0,0.2,1,0.2,1C38.1,74.2,37.6,74.3,37.1,74.3z"/>
	<path fill="#FFFFFF" d="M40.5,66.2c-0.5,0-0.8-0.4-0.8-0.8s0.2-0.8,0.8-0.8c0.5,0,0.8,0.4,0.8,0.8S41.1,66.2,40.5,66.2z M40,74.1
		v-6.5l1.1-0.2v6.6H40z"/>
	<path fill="#FFFFFF" d="M51.1,74.1v-4c0-1.1-0.4-1.5-1.2-1.5c-0.7,0-1.3,0.4-1.6,0.7v0.4v4.4h-1.2v-4c0-1.1-0.4-1.5-1.2-1.5
		c-0.7,0-1.3,0.3-1.6,0.7v4.9h-1.1v-6.5l1.1-0.2c0,0,0,0.8,0,0.9c0.6-0.6,1.3-0.9,2.1-0.9c0.7,0,1.4,0.4,1.7,1.1
		c0.7-0.7,1.4-1.1,2.3-1.1c1.2,0,1.9,0.8,1.9,2.2v4.4H51.1z"/>
	<path fill="#FFFFFF" d="M55,71.1c0,1.3,0.9,2.2,2.1,2.2c0.7,0,1.4-0.2,1.9-0.5l0.2,1.1c-0.6,0.4-1.3,0.5-2.2,0.5
		c-1.9,0-3.3-1.4-3.3-3.4c0-2.1,1.4-3.5,3.2-3.5c1.6,0,2.5,1,2.5,2.5c0,0.4-0.1,0.7-0.1,1C59.3,71,55,71,55,71.1L55,71.1z
		 M58.3,70.1L58.3,70.1c0-1.1-0.4-1.7-1.5-1.7c-1.1,0-1.7,0.9-1.8,1.7L58.3,70.1z"/>
	<path fill="#FFFFFF" d="M65.8,74.3c-0.8,0-1.7-0.2-2.2-0.6l0.3-1.1c0.5,0.4,1.3,0.6,2,0.6c0.7,0,1.3-0.3,1.3-0.9
		c0-0.6-0.8-0.9-1.5-1.1c-0.9-0.3-1.9-0.7-1.9-1.9c0-1.2,1-1.9,2.3-1.9c0.7,0,1.5,0.2,2.1,0.5L67.8,69c-0.5-0.3-1.3-0.5-1.8-0.5
		c-0.7,0-1.1,0.3-1.1,0.8c0,0.6,0.7,0.8,1.5,1c0.9,0.3,1.9,0.7,1.9,1.9C68.3,73.5,67.2,74.3,65.8,74.3z"/>
	<path fill="#FFFFFF" d="M72.7,67.4c1.8,0,2.9,1.5,2.9,3.4c0,1.9-1.3,3.4-3.3,3.4c-0.4,0-1-0.1-1.4-0.2v3.2h-1.1v-9.7l1.1-0.2
		c0,0,0,0.7,0,0.8C71.4,67.8,72,67.4,72.7,67.4z M70.9,72.8c0.4,0.3,0.9,0.5,1.4,0.5c1.3,0,2-1.1,2-2.4c0-1.4-0.7-2.4-1.9-2.4
		c-0.6,0-1.1,0.2-1.6,0.6C70.9,69.1,70.9,72.8,70.9,72.8z"/>
	<path fill="#FFFFFF" d="M77.9,71.1c0,1.3,0.9,2.2,2.1,2.2c0.7,0,1.4-0.2,1.9-0.5l0.2,1.1c-0.6,0.4-1.3,0.5-2.2,0.5
		c-1.9,0-3.3-1.4-3.3-3.4c0-2.1,1.4-3.5,3.2-3.5c1.6,0,2.5,1,2.5,2.5c0,0.4-0.1,0.7-0.1,1C82.2,71,77.9,71,77.9,71.1L77.9,71.1z
		 M81.2,70.1L81.2,70.1c0-1.1-0.4-1.7-1.5-1.7c-1.1,0-1.7,0.9-1.8,1.7L81.2,70.1z"/>
	<path fill="#FFFFFF" d="M88,74.1v-4c0-1.1-0.4-1.5-1.3-1.5c-0.7,0-1.3,0.4-1.7,0.7v4.8h-1.1v-6.5l1.1-0.2v1c0.6-0.6,1.3-1,2.1-1
		c1.3,0,2.1,0.8,2.1,2.2v4.4H88z"/>
	<path fill="#FFFFFF" d="M93.1,74.3c-1.2,0-1.9-0.6-1.9-2l0.1-3.6l-1.1-0.1l0-0.7l1.1-0.3l0-1.4h1.1l0,1.5h2l0,1h-2l-0.1,3.6
		c0,0.6,0.3,0.9,0.8,0.9c0.4,0,0.8-0.1,1.2-0.2c0,0,0.2,1,0.2,1C94,74.2,93.6,74.3,93.1,74.3z"/>
	<path fill="#FFFFFF" d="M26,88.3c-1.8,0-3.1-1.3-3.1-3.4c0-2.1,1.3-3.4,3.2-3.4c1.8,0,3.1,1.4,3.1,3.4C29.2,87,27.8,88.3,26,88.3z
		 M26,82.5c-1.3,0-2,1-2,2.4c0,1.4,0.7,2.4,2,2.4c1.3,0,2-1,2-2.4C28,83.5,27.3,82.5,26,82.5z"/>
	<path fill="#FFFFFF" d="M34.9,88.1v-4c0-1.1-0.4-1.5-1.3-1.5c-0.7,0-1.3,0.4-1.7,0.7v4.8h-1.1v-6.5l1.1-0.2v1c0.6-0.6,1.3-1,2.1-1
		c1.3,0,2.1,0.8,2.1,2.2v4.4H34.9z"/>
	<path fill="#FFFFFF" d="M49.2,88.1v-4c0-1.1-0.4-1.5-1.2-1.5c-0.7,0-1.3,0.4-1.6,0.7v0.4v4.4h-1.2v-4c0-1.1-0.4-1.5-1.2-1.5
		c-0.7,0-1.3,0.3-1.6,0.7v4.9h-1.1v-6.5l1.1-0.2c0,0,0,0.8,0,0.9c0.6-0.6,1.3-0.9,2.1-0.9c0.7,0,1.4,0.4,1.7,1.1
		c0.7-0.7,1.4-1.1,2.3-1.1c1.2,0,1.9,0.8,1.9,2.2v4.4H49.2z"/>
	<path fill="#FFFFFF" d="M55,88.3c-1.8,0-3.1-1.3-3.1-3.4c0-2.1,1.3-3.4,3.2-3.4c1.8,0,3.1,1.4,3.1,3.4C58.2,87,56.8,88.3,55,88.3z
		 M55,82.5c-1.3,0-2,1-2,2.4c0,1.4,0.7,2.4,2,2.4c1.3,0,2-1,2-2.4C57,83.5,56.3,82.5,55,82.5z"/>
	<path fill="#FFFFFF" d="M62.3,88.3c-0.4,0-1-0.1-1.4-0.2l-1.1,0.2v-9.7l1.1-0.2c0,0,0,3.7,0,3.8c0.5-0.4,1-0.8,1.8-0.8
		c1.8,0,2.9,1.5,2.9,3.4C65.5,86.8,64.2,88.3,62.3,88.3z M62.4,82.5c-0.6,0-1.1,0.2-1.6,0.6c0-0.1,0,3.7,0,3.7
		c0.4,0.3,0.9,0.5,1.4,0.5c1.3,0,2-1.1,2-2.4C64.3,83.5,63.6,82.5,62.4,82.5z"/>
	<path fill="#FFFFFF" d="M67.6,80.3c-0.5,0-0.8-0.4-0.8-0.8s0.2-0.8,0.8-0.8c0.5,0,0.8,0.4,0.8,0.8S68.2,80.3,67.6,80.3z M67.1,88.1
		v-6.5l1.1-0.2v6.6H67.1z"/>
	<path fill="#FFFFFF" d="M70.2,88.1v-9.5l1.1-0.2v9.6H70.2z"/>
	<path fill="#FFFFFF" d="M74.1,85.1c0,1.3,0.9,2.2,2.1,2.2c0.7,0,1.4-0.2,1.9-0.5l0.2,1.1c-0.6,0.4-1.3,0.5-2.2,0.5
		c-1.9,0-3.3-1.4-3.3-3.4c0-2.1,1.4-3.5,3.2-3.5c1.6,0,2.5,1,2.5,2.5c0,0.4-0.1,0.7-0.1,1C78.4,85,74.1,85,74.1,85.1L74.1,85.1z
		 M77.5,84.2L77.5,84.2c0-1.1-0.4-1.7-1.5-1.7c-1.1,0-1.7,0.9-1.8,1.7L77.5,84.2z"/>
</g>
</svg>
